<?xml version="1.0" standalone="no"?>
<!DOCTYPE svg PUBLIC "-//W3C//DTD SVG 1.1//EN" "http://www.w3.org/Graphics/SVG/1.1/DTD/svg11.dtd" >
<svg xmlns="http://www.w3.org/2000/svg">
<metadata>
<json>
<![CDATA[
{
	"fontFamily": "WooCommerce",
	"fontURL": "http://woothemes.com",
	"designer": "James Koster",
	"designerURL": "http://jameskoster.co.uk",
	"license": "SIL OFL",
	"licenseURL": "http://scripts.sil.org/cms/scripts/page.php?site_id=nrsi&id=OFL",
	"description": "Font generated by IcoMoon.",
	"version": "Version 1.0",
	"majorVersion": 0,
	"fontId": "WooCommerce",
	"psName": "WooCommerce",
	"subFamily": "Regular",
	"fullName": "WooCommerce"
}
]]>
</json>
</metadata>
<defs>
<font id="WooCommerce" horiz-adv-x="1024">
<font-face units-per-em="1024" ascent="896" descent="-128" />
<missing-glyph horiz-adv-x="1024" />
<glyph unicode="&#x20;" horiz-adv-x="400" d="" />
<glyph unicode="&#xe900;" glyph-name="engineer" data-tags="engineer" d="M1024 202.323v258.677c0 39.935-28.524 74.105-67.798 81.242l-113.879 20.694v31.879c30.161 24.242 49.548 61.355 49.548 102.976v33.032h33.032v33.048h-33.032v16.516c0 63.75-51.879 115.613-115.613 115.613h-33.032c-63.734 0-115.613-51.863-115.613-115.613v-16.516h-33.032v-33.032h33.032v-33.032c0-39.476 17.492-74.871 45.024-99.097h-141.871l-17.298 30.29c1.718 3.734 3.306 7.516 4.726 11.315l43.355 11.855v91.274l-43.355 11.855c-1.419 3.798-3.008 7.581-4.726 11.315l22.315 39.056-64.524 64.548-39.097-22.298c-3.75 1.718-7.516 3.306-11.298 4.726l-11.855 43.355h-91.29l-11.855-43.355c-3.782-1.419-7.548-2.992-11.298-4.726l-39.097 22.298-64.524-64.548 22.315-39.056c-1.718-3.734-3.306-7.516-4.726-11.315l-43.371-11.855v-91.274l43.355-11.855c1.419-3.798 3.008-7.581 4.726-11.315l-17.298-30.29h-113.363c-45.532 0-82.581-37.048-82.581-82.581v-561.548c0-45.532 37.048-82.581 82.581-82.581h115.613v132.129h177.782l66.065-33.032h499.379c45.532 0 82.581 37.048 82.581 82.581s-37.048 82.581-82.581 82.581h-49.548v66.065zM990.968 461v-225.645h-66.065v165.161h-33.032v-165.161h-264.258v165.161h-33.032v-165.161h-66.065v225.645c0 23.96 17.113 44.46 40.677 48.75l64.831 11.798 33.363-133.468 92.355 73.863 92.355-73.895 33.363 133.468 64.831-11.798c23.565-4.258 40.677-24.774 40.677-48.718zM688.113 531.355l46.887-46.887-48.081-38.468-20.347 81.444zM852.911 527.444l-20.347-81.444-48.081 38.468 46.887 46.887zM809.29 556l-49.548-49.548-49.548 49.548v19.403c15.306-6.226 32.024-9.726 49.548-9.726s34.242 3.5 49.548 9.726zM858.839 780.387v-16.516h-47.355l10.637 85.121c22.121-14.831 36.718-40.032 36.718-68.605zM776.258 862.968c4.839 0 9.532-0.629 14.137-1.435l-12.202-97.661h-36.903l-12.202 97.661c4.605 0.806 9.298 1.435 14.137 1.435zM660.645 780.387c0 28.573 14.597 53.774 36.718 68.605l10.637-85.121h-47.355zM660.645 697.806v33.032h198.194v-33.032c0-54.653-44.444-99.097-99.097-99.097s-99.097 44.444-99.097 99.097zM246.532 636.202c-3.895 7.347-7.081 14.96-9.444 22.613l-2.661 8.669-36.234 9.895v40.855l36.218 9.911 2.661 8.669c2.379 7.653 5.548 15.266 9.444 22.613l4.266 8.024-18.661 32.685 28.887 28.903 32.685-18.645 8.008 4.234c7.427 3.927 15.065 7.097 22.645 9.444l8.653 2.677 9.944 36.218h40.839l9.927-36.218 8.653-2.677c7.581-2.347 15.218-5.516 22.645-9.444l8.008-4.234 32.685 18.645 28.887-28.903-18.661-32.685 4.266-8.024c3.895-7.347 7.081-14.96 9.444-22.613l2.661-8.669 36.218-9.911v-40.855l-36.218-9.911-2.661-8.669c-2.379-7.653-5.548-15.266-9.444-22.613l-4.266-8.024 16.798-29.452h-258.742l16.815 29.452zM165.161-94.968h-82.581c-27.315 0-49.548 22.234-49.548 49.548s22.234 49.548 49.548 49.548h82.581zM462.452 103.226h363.355v-99.097h-363.355zM429.419 14.339l-78.685 39.339 78.685 39.339zM990.968 53.677c0-27.315-22.234-49.548-49.548-49.548h-82.581v99.097h82.581c27.315 0 49.548-22.234 49.548-49.548zM858.839 136.258h-416.798l-165.161-82.581 33.032-16.516h-227.331c-18.661 0-35.71-6.46-49.548-16.944v495.911c0 27.315 22.234 49.548 49.548 49.548h594.581v-2.742l-113.879-20.694c-39.274-7.153-67.798-41.306-67.798-81.242v-258.677h363.355zM462.452 697.806c0 54.653-44.444 99.097-99.097 99.097s-99.097-44.444-99.097-99.097 44.444-99.097 99.097-99.097 99.097 44.444 99.097 99.097zM363.355 631.742c-36.435 0-66.065 29.629-66.065 66.065s29.629 66.065 66.065 66.065 66.065-29.629 66.065-66.065-29.629-66.065-66.065-66.065zM66.065 103.226h198.194v-33.032h-198.194zM297.29 532.645c-73.911 0-136.855-48.129-157.758-116.177l-73.468 73.468v-353.677h353.677l-73.468 73.468c68.032 20.919 116.177 83.944 116.177 157.758 0 91.073-74.089 165.161-165.161 165.161zM99.097 169.29v240.903l240.903-240.903zM318.774 237.234l-151.734 151.718c10.323 63.605 64.895 110.661 130.25 110.661 72.855 0 132.129-59.274 132.129-132.129 0-65.29-47.073-119.903-110.645-130.25z" />
<glyph unicode="&#xe901;" glyph-name="idea" data-tags="idea" d="M974.452 152.774h-115.613c-9.097 0-16.516 7.419-16.516 16.516v49.548h49.548c45.532 0 82.581 37.048 82.581 82.581v16.516h-82.581c-18.661 0-35.71-6.46-49.548-16.944v49.976c27.315 0 49.548 22.234 49.548 49.548v19.556c19.177 6.839 33.032 25.008 33.032 46.508v56.29c60.516 35.242 99.097 102.79 99.097 174.935 0 57.113-24.661 111.468-67.653 149.121-42.952 37.629-100.379 54.806-157.597 47.274-75.919-10.097-139.508-63.573-162-136.274-12.177-39.347-11.613-80.484-0.5-118.161l-58.185-23.266v213.435h-33.032v66.065h-396.387v-66.065h-33.032v-213.435l-79.411 31.758h-36.202v-677.161c0-54.653 44.444-99.097 99.097-99.097h495.484c36.581 0 68.524 19.984 85.685 49.548h211.605c27.315 0 49.548 22.234 49.548 49.548s-22.234 49.548-49.548 49.548h-115.613c-9.097 0-16.516 7.419-16.516 16.516s7.419 16.516 16.516 16.516h198.194c27.315 0 49.548 22.234 49.548 49.548s-22.234 49.548-49.548 49.548zM891.871 284.903h46.726c-6.823-19.226-25.185-33.032-46.726-33.032h-46.726c6.823 19.226 25.185 33.032 46.726 33.032zM809.29 250.056c-21.008 21.468-50.242 34.847-82.581 34.847h-33.032v262.508c10.056-9.218 21.008-17.556 33.032-24.556v-56.274c0-21.5 13.855-39.669 33.032-46.508v-19.556c0-27.315 22.234-49.548 49.548-49.548zM645.798 251.871h80.911c39.887 0 73.25-28.427 80.911-66.065h-80.911c-39.887 0-73.25 28.427-80.911 66.065zM842.323 384h-33.032c-9.097 0-16.516 7.419-16.516 16.516v16.516h66.065v-16.516c0-9.097-7.419-16.516-16.516-16.516zM875.355 450.065h-99.097c-9.097 0-16.516 7.419-16.516 16.516v49.548h132.129v-49.548c0-9.097-7.419-16.516-16.516-16.516zM825.806 664.774c-18.218 0-33.032 14.815-33.032 33.032s14.815 33.032 33.032 33.032 33.032-14.815 33.032-33.032-14.815-33.032-33.032-33.032zM668.306 748.161c18.702 60.435 71.597 104.895 134.79 113.29 7.71 1.024 15.395 1.532 22.992 1.532 40.081 0 77.968-14.137 108.508-40.911 35.823-31.363 56.371-76.669 56.371-124.266 0-62.169-34.153-120.008-87.121-148.645h-61.524v84.927c28.411 7.379 49.548 33.032 49.548 63.718 0 36.435-29.629 66.065-66.065 66.065s-66.065-29.629-66.065-66.065c0-30.685 21.137-56.339 49.548-63.718v-84.927h-61.702c-68.992 37.363-103.065 122.137-79.282 199zM660.645 586.718v-301.815h-33.032v66.065h-165.161v-99.097h149.968c4.653-32.306 22.613-60.315 48.226-78.218v-128.895c-15.032 13.492-34.121 22.532-55.266 24.823-13.653 39.242-50.879 66.677-93.379 66.677-17.742 0-34.371-4.742-48.79-12.952-8.589 13.411-20.194 24.411-33.79 32.306v365.855l218.694 87.468c3.661-7.685 7.944-15.048 12.532-22.218zM495.484 284.903v33.032h33.032v-33.032zM561.548 317.935h33.032v-33.032h-33.032zM181.677 862.968h330.323v-33.032h-330.323zM148.645 796.903h396.387v-193.621l-148.645-59.46v-376.016c-5.419 0.919-10.919 1.484-16.516 1.484-12.468 0-24.726-2.492-36.218-7-11.629 15.589-27.702 27.629-46.363 34.25v347.282l-148.645 59.46zM264.258 521.468v-319.145c-31.742 0-60.879-15.048-79.395-39.984-11.226 4.444-23.435 6.952-36.218 6.952-54.653 0-99.097-44.444-99.097-99.097 0-4.226 0.331-8.492 0.992-12.895-6.395-3.573-12.169-7.935-17.508-12.669v569.323zM594.581-94.968h-495.484c-36.435 0-66.065 29.629-66.065 66.065 0 27.403 16.629 51.532 42.379 61.46l14.024 5.411-4.065 14.468c-1.895 6.79-2.79 12.444-2.79 17.758 0 36.435 29.629 66.065 66.065 66.065s66.065-29.629 66.065-66.065h33.032c0 29.927-13.379 56.734-34.419 74.919 12.403 15.097 30.871 24.177 50.935 24.177 36.435 0 66.065-29.629 66.065-66.065h33.032c0 10.258-1.573 20.153-4.476 29.468 6.742 2.258 13.806 3.565 20.992 3.565 24.081 0 46.161-13.282 57.71-33.871-15.315-17.46-24.677-40.234-24.677-65.226h33.032c0 36.435 29.629 66.065 66.065 66.065 25.185 0 47.532-14.516 58.613-36.089-43.073-10.75-75.129-49.661-75.129-96.040h33.032c0 36.435 29.629 66.065 66.065 66.065s66.065-29.629 66.065-66.065-29.629-66.065-66.065-66.065zM974.452 86.71h-198.194c-27.315 0-49.548-22.234-49.548-49.548s22.234-49.548 49.548-49.548h115.613c9.097 0 16.516-7.419 16.516-16.516s-7.419-16.516-16.516-16.516h-199.677c0.903 5.387 1.484 10.887 1.484 16.516v186.548c10.468-3.137 21.556-4.871 33.032-4.871h85.621c6.839-19.177 25.008-33.032 46.508-33.032h115.613c9.097 0 16.516-7.419 16.516-16.516s-7.419-16.516-16.516-16.516zM512 763.871h-330.323v-132.129h330.323zM379.871 730.839v-66.065h-66.065v66.065zM214.71 730.839h66.065v-66.065h-66.065zM478.968 664.774h-66.065v66.065h66.065zM231.226 499.613h-165.161v-99.097h165.161zM99.097 466.581h33.032v-33.032h-33.032zM198.194 433.548h-33.032v33.032h33.032zM231.226 367.484h-165.161v-99.097h165.161zM99.097 334.452h33.032v-33.032h-33.032zM198.194 301.419h-33.032v33.032h33.032zM627.613 483.097h-165.161v-99.097h165.161zM495.484 450.065h33.032v-33.032h-33.032zM594.581 417.032h-33.032v33.032h33.032z" />
<glyph unicode="&#xe902;" glyph-name="building" data-tags="building" d="M974.452-28.903h-16.516v429.419c18.218 0 33.032 14.815 33.032 33.032v49.548c0 18.218-14.815 33.032-33.032 33.032h-429.419v165.161c0 21.5-13.855 39.669-33.032 46.508v118.653c0 27.315-22.234 49.548-49.548 49.548h-231.226c-27.315 0-49.548-22.234-49.548-49.548v-19.556c-19.177-6.839-33.032-25.008-33.032-46.508v-52.589c-19.177-6.839-33.032-25.008-33.032-46.508v-415.944c-19.177-6.839-33.032-25.008-33.032-46.508v-247.742h-16.516c-27.315 0-49.548-22.234-49.548-49.548v-49.548h1024v49.548c0 27.315-22.234 49.548-49.548 49.548zM924.903-28.903h-363.355v247.742c0 21.5-13.855 39.669-33.032 46.508v135.169h396.387zM957.935 483.097v-49.548h-429.419v49.548zM214.71 862.968h231.226c9.097 0 16.516-7.419 16.516-16.516v-115.613h-33.032v56.387l-42.71 42.71h-188.516v16.516c0 9.097 7.419 16.516 16.516 16.516zM181.677 796.903h191.355l23.355-23.355v-42.71h-231.226v49.548c0 9.097 7.419 16.516 16.516 16.516zM148.645 697.806h330.323c9.097 0 16.516-7.419 16.516-16.516v-412.903h-363.355v412.903c0 9.097 7.419 16.516 16.516 16.516zM99.097 218.839c0 9.097 7.419 16.516 16.516 16.516h396.387c9.097 0 16.516-7.419 16.516-16.516v-247.742h-33.032v181.677c0 27.315-22.234 49.548-49.548 49.548h-66.065c-27.315 0-49.548-22.234-49.548-49.548v-181.677h-33.032v181.677c0 27.315-22.234 49.548-49.548 49.548h-66.065c-27.315 0-49.548-22.234-49.548-49.548v-181.677h-33.032zM462.452-28.903h-99.097v181.677c0 9.097 7.419 16.516 16.516 16.516h66.065c9.097 0 16.516-7.419 16.516-16.516zM264.258-28.903h-99.097v181.677c0 9.097 7.419 16.516 16.516 16.516h66.065c9.097 0 16.516-7.419 16.516-16.516zM990.968-94.968h-957.935v16.516c0 9.097 7.419 16.516 16.516 16.516h924.903c9.097 0 16.516-7.419 16.516-16.516zM462.452 664.774h-132.129v-99.097h132.129zM429.419 598.71h-66.065v33.032h66.065zM297.29 664.774h-132.129v-99.097h132.129zM264.258 598.71h-66.065v33.032h66.065zM462.452 532.645h-132.129v-99.097h132.129zM429.419 466.581h-66.065v33.032h66.065zM297.29 532.645h-132.129v-99.097h132.129zM264.258 466.581h-66.065v33.032h66.065zM462.452 400.516h-132.129v-99.097h132.129zM429.419 334.452h-66.065v33.032h66.065zM297.29 400.516h-132.129v-99.097h132.129zM264.258 334.452h-66.065v33.032h66.065zM891.871 103.226h-132.129v-99.097h132.129zM858.839 37.161h-66.065v33.032h66.065zM726.71 103.226h-132.129v-99.097h132.129zM693.677 37.161h-66.065v33.032h66.065zM891.871 235.355h-132.129v-99.097h132.129zM858.839 169.29h-66.065v33.032h66.065zM726.71 235.355h-132.129v-99.097h132.129zM693.677 169.29h-66.065v33.032h66.065zM891.871 367.484h-132.129v-99.097h132.129zM858.839 301.419h-66.065v33.032h66.065zM726.71 367.484h-132.129v-99.097h132.129zM693.677 301.419h-66.065v33.032h66.065z" />
<glyph unicode="&#xe903;" glyph-name="houses" data-tags="houses" d="M911.823 278.758c-17.444 4.363-33.234 14.484-44.46 28.524l-124.137 155.169-49.548-61.935v217.169h33.032v61.46l-82.613 27.532c-15.145 5.032-28.411 14.298-38.387 26.758l-126.742 158.435-126.742-158.419c-9.976-12.46-23.242-21.726-38.387-26.758l-82.613-27.548v-61.46h33.032v-234.839l-264.258-66.065v-442.323h990.968v297.29h33.032v78.968zM495.484 171.75v-82.581h-115.613c-9.097 0-16.516 7.419-16.516 16.516v132.129c0 9.105 7.419 16.516 16.516 16.516h97.065l-14.484-3.613v-78.968zM495.484-92.508h-99.097v82.581h99.097zM595.387 287.363h-215.516c-27.315 0-49.548-22.226-49.548-49.548v-132.129c0-27.315 22.234-49.548 49.548-49.548h115.613v-33.032h-132.129v-115.613h-66.065v412.903h332.306l-10.492-13.113c-6.524-8.145-14.694-14.766-23.718-19.919zM561.548 353.427v33.032h33.032v-33.032zM462.452 386.46v-33.032h-33.032v33.032zM495.484 386.46h33.032v-33.032h-33.032zM561.548 419.492h-165.161v82.581c0 27.323 22.234 49.548 49.548 49.548h66.065c27.315 0 49.548-22.226 49.548-49.548zM396.387 386.46v-33.032h-33.032v33.032zM264.258 655.331l60.032 20c21.194 7.065 39.774 20.016 53.718 37.476l100.96 126.177 100.944-126.177c13.96-17.46 32.54-30.411 53.71-37.476l60.056-20v-4.613h-429.419zM660.645 617.685v-258.46l-4.621-5.798h-28.411v66.065h-33.032v82.581c0 45.532-37.048 82.581-82.581 82.581h-66.065c-45.532 0-82.581-37.048-82.581-82.581v-82.581h-33.032v-66.065h-33.032v264.258zM264.258 348.79v-32.008l-231.226-57.806v32.008zM33.032 224.919l231.226 57.806v-375.234h-231.226zM594.581 6.589h33.032v33.032h-33.032v16.516c0 27.323 22.234 49.548 49.548 49.548h33.032c27.315 0 49.548-22.226 49.548-49.548v-148.645h-132.129zM957.935-92.508h-198.194v148.645c0 45.532-37.048 82.581-82.581 82.581h-33.032c-45.532 0-82.581-37.048-82.581-82.581v-148.645h-33.032v264.258h429.419zM990.968 204.782h-495.484v20.137l87.169 21.782c24.411 6.113 46.516 20.298 62.234 39.935l98.339 122.927 98.339-122.911c15.718-19.653 37.823-33.823 62.234-39.935l87.169-21.798zM66.065 204.782v-231.226h165.161v231.226zM198.194 105.685h-33.032v66.065h33.032zM132.129 171.75v-66.065h-33.032v66.065zM99.097 72.653h33.032v-66.065h-33.032zM165.161 6.589v66.065h33.032v-66.065zM924.903 138.718h-132.129v-99.097h132.129zM891.871 72.653h-66.065v33.032h66.065z" />
<glyph unicode="&#xe904;" glyph-name="architect" data-tags="architect" d="M1024 454.379v54.024c0 40.823-30.492 75.968-70.887 81.734l-44.726 6.379v23.073c29.911 20.919 49.548 55.556 49.548 94.734v16.516h33.032v33.032h-33.032v16.516c0 45.532-37.048 82.581-82.581 82.581h-66.065c-45.532 0-82.581-37.048-82.581-82.581v-16.516h-33.032v-33.032h33.032v-16.516c0-32.339 13.379-61.573 34.863-82.581h-100.927v214.71c0 27.315-22.234 49.548-49.548 49.548h-330.323c-27.315 0-49.548-22.234-49.548-49.548v-313.806h-231.226v-99.097h33.032v-435.726l-20.411-10.21 165.161-82.581h563.911l2.952-33.032h195.323l34.484 379.871v0.202c27.484 1.073 49.548 23.613 49.548 51.347 0 13.573-5.5 26.855-15.097 36.452l-27.548 27.548 27.718 39.589c9.774 13.952 14.927 30.339 14.927 47.371zM897.702 564.669l6.758-0.96-19.048-50.782-19.734 19.718zM875.355 589.032l-33.032-33.032-33.032 33.032v14.548c10.468-3.137 21.556-4.871 33.032-4.871s22.565 1.734 33.032 4.871zM198.194-28.903h462.452v-33.032h-462.452zM660.645 4.129h-462.452v33.032h462.452zM363.355 202.323h-231.226v165.161h231.226zM660.645 367.484h-66.065v66.065h66.065zM660.645 508.379v-41.798h-66.065v66l70.048-0.032c-2.411-7.718-3.984-15.758-3.984-24.169zM561.548 466.581h-99.097v66.065l99.097-0.048zM462.452 433.548h99.097v-66.065h-99.097zM462.452 334.452h99.097v-66.065h-99.097zM462.452 235.355h99.097v-66.065h-99.097zM462.452 136.258h99.097v-66.065h-99.097zM594.581 70.194v66.065h126.379l5.935-66.065zM718.008 169.29h-123.427v66.065h115.613c0.645 0 1.242 0.161 1.863 0.185zM594.581 268.387v66.065h66.065v-49.548c0-5.815 1.185-11.331 3.040-16.516zM684.21 565.565l-254.79 0.113v-495.484h-33.032v528.516h379.871v-2.194l-44.71-6.395c-18.629-2.661-34.952-11.742-47.339-24.556zM786.944 564.669l32.024-32.024-19.734-19.718-19.048 50.782zM924.903 780.387v-16.516h-46.573l10.653 63.919c20.677-5.968 35.919-24.839 35.919-47.403zM828.782 829.935h27.065l-11.016-66.065h-5.048zM759.742 780.387c0 22.565 15.242 41.435 35.919 47.403l10.653-63.919h-46.573zM759.742 714.323v16.516h165.161v-16.516c0-45.532-37.048-82.581-82.581-82.581s-82.581 37.048-82.581 82.581zM264.258 846.452c0 9.113 7.419 16.516 16.516 16.516h330.323c9.097 0 16.516-7.403 16.516-16.516v-214.71h-264.258v-99.097h-99.097zM33.032 499.613h330.323v-33.032h-330.323zM66.065 433.548h297.29v-33.032h-264.258v-231.226h264.258v-99.097h-185.573l-111.718-55.855zM165.161 26.952v-78.677l-78.685 39.339zM693.677-61.935v99.097h36.169l8.887-99.097zM743.54 248.5c1.169 1.073 2.258 2.202 3.323 3.371h78.944v-346.839h-50.984zM909.823-94.968h-50.984v346.839h16.073c16 0 31.032 7.847 40.234 20.96l6.177 8.839 14.677-14.685c1.685-1.685 3.589-3.073 5.452-4.476l0.032-9.121zM985.548 316.516c3.435-3.452 5.419-8.226 5.419-13.097 0-10.21-8.306-18.516-18.516-18.516-4.952 0-9.597 1.919-13.097 5.419l-18.815 18.806 21.573 30.823zM990.968 454.379c0-10.21-3.105-20.040-8.952-28.427l-93.944-134.194c-3.024-4.298-7.927-6.855-13.161-6.855-8.855 0-16.073 7.218-16.073 16.073v6.105c0 3.452 1.137 6.871 3.202 9.645l89.274 119.016c4.274 5.685 6.621 12.734 6.621 19.823v27.532h-33.032v-27.532l-13.79-18.379c-9.379 8.202-21.161 12.879-33.758 12.879-28.427 0-51.548-23.121-51.548-51.548 0-13.573 5.5-26.855 15.097-36.452l7.927-7.911-13.21-17.605c-6.331-8.476-9.815-18.944-9.815-29.468v-6.105c0-5.653 1.153-11 2.919-16.073h-68.984v198.194h-33.032v-198.194c0-9.113-7.419-16.516-16.516-16.516s-16.516 7.403-16.516 16.516v223.476c0 24.5 18.282 45.589 42.548 49.040l10.468 1.5 39.621-105.637 56.008 56.008 56.008-56.008 39.621 105.637 10.484-1.5c24.25-3.452 42.532-24.524 42.532-49.040zM864.258 385.419c-3.435 3.452-5.419 8.226-5.419 13.097 0 10.21 8.306 18.516 18.516 18.516 4.952 0 9.597-1.919 13.081-5.419l0.855-0.855-22.444-29.927zM594.581 796.903h-297.29v-132.129h297.29zM462.452 763.871h33.032v-66.065h-33.032zM429.419 697.806h-33.032v66.065h33.032zM330.323 763.871h33.032v-66.065h-33.032zM561.548 697.806h-33.032v66.065h33.032z" />
<glyph unicode="&#xe905;" glyph-name="house-sketch" data-tags="house-sketch" d="M957.935 598.71v198.194h-66.065c-45.669 0-88.242-16.911-121.298-46.919-13.427 41.258-49.46 72.306-93.411 78.629v67.387h-132.129v-67.387c-43.952-6.323-79.984-37.371-93.411-78.629-33.056 30.008-75.629 46.919-121.298 46.919h-66.065v-198.194h-82.581c-45.532 0-82.581-37.048-82.581-82.581v-313.806h-33.032c-36.435 0-66.065-29.629-66.065-66.065s29.629-66.065 66.065-66.065h33.032v-115.613c0-45.532 37.048-82.581 82.581-82.581h115.613v132.129h726.71v594.581zM891.871 763.871h33.032v-495.484h-99.097v33.032h66.065v132.129h-66.065v33.032h66.065v132.129h-66.065v26.726l-49.548 24.774v57.839c28.444 35.444 70.194 55.823 115.613 55.823zM594.581 268.387h-66.065v115.613c0 39.871 28.427 73.234 66.065 80.911zM627.613 464.911c37.637-7.677 66.065-41.024 66.065-80.911v-115.613h-66.065zM611.097 499.613c-63.75 0-115.613-51.863-115.613-115.613v-115.613h-66.065v336.629l181.677 90.839 181.677-90.839v-336.629h-66.065v115.613c0 63.75-51.863 115.613-115.613 115.613zM396.387 499.613h-33.032v66.065h33.032zM396.387 334.452h-33.032v66.065h33.032zM825.806 565.677h33.032v-66.065h-33.032zM825.806 400.516h33.032v-66.065h-33.032zM644.129 862.968v-33.032h-66.065v33.032zM561.548 796.903h99.097c45.532 0 82.581-37.048 82.581-82.581v-47.597l-132.129 66.065-132.129-66.065v47.597c0 45.532 37.048 82.581 82.581 82.581zM297.29 763.871h33.032c45.419 0 87.169-20.379 115.613-55.823v-57.823l-49.548-24.774v-26.742h-66.065v-132.129h66.065v-33.032h-66.065v-132.129h66.065v-33.032h-99.097zM429.419 159.081l45.653-22.823-45.653-22.823zM396.387 103.226h-231.226v66.065h231.226zM33.032 136.258c0 18.218 14.815 33.032 33.032 33.032h66.065v-66.065h-66.065c-18.218 0-33.032 14.815-33.032 33.032zM264.258-94.968h-82.581c-27.315 0-49.548 22.234-49.548 49.548s22.234 49.548 49.548 49.548h82.581zM990.968 37.161h-809.29c-18.661 0-35.71-6.46-49.548-16.944v49.976h284.669l132.129 66.065-132.129 66.065h-284.669v313.806c0 27.315 22.234 49.548 49.548 49.548h82.581v-330.323h693.677v330.323h33.032zM611.097 664.774c-36.435 0-66.065-29.629-66.065-66.065s29.629-66.065 66.065-66.065 66.065 29.629 66.065 66.065-29.629 66.065-66.065 66.065zM611.097 565.677c-18.218 0-33.032 14.815-33.032 33.032s14.815 33.032 33.032 33.032 33.032-14.815 33.032-33.032-14.815-33.032-33.032-33.032zM644.129 103.226h250.452v-33.032h-250.452zM927.613 103.226h30.323v-33.032h-30.323zM644.129 169.29h313.806v-33.032h-313.806z" />
<glyph unicode="&#xe906;" glyph-name="brokerage" data-tags="brokerage" d="M528.516 461c0 39.919-28.524 74.073-67.815 81.242l-113.863 20.71v31.879c30.161 24.242 49.548 61.355 49.548 102.976v66.065c0 72.855-59.274 132.129-132.129 132.129s-132.129-59.274-132.129-132.129v-66.065c0-41.621 19.387-78.75 49.548-102.976v-31.879l-113.879-20.71c-39.274-7.169-67.798-41.323-67.798-81.242v-258.677h528.516zM357.427 527.444l-20.363-81.444-48.081 38.468 46.887 46.887zM262.823 384h2.855l13.508-148.645h-29.871zM271.935 417.032h-15.355l-16.863 25.282 24.54 19.629 24.54-19.629zM264.258 862.968c54.484 0 98.815-44.194 99.081-98.637-18.153 1.161-35.097 8.46-48.081 21.444l-17.968 17.968-17.968-17.968c-14.121-14.121-32.903-21.903-52.887-21.903h-61.274c0 54.653 44.444 99.097 99.097 99.097zM165.161 697.806v33.032h61.274c26.331 0 51.218 9.363 70.855 26.524 18.419-16.105 41.54-25.024 66.065-26.113v-33.444c0-54.653-44.444-99.097-99.097-99.097s-99.097 44.444-99.097 99.097zM264.258 565.677c17.524 0 34.242 3.5 49.548 9.726v-19.403l-49.548-49.548-49.548 49.548v19.403c15.306-6.226 32.024-9.726 49.548-9.726zM192.645 531.355l46.887-46.887-48.081-38.468-20.363 81.444zM33.032 461c0 23.944 17.113 44.444 40.677 48.75l64.815 11.782 33.363-133.468 41.927 33.54 16.935-25.403-14.605-160.847h-84.016v165.161h-33.032v-165.161h-66.065zM495.484 235.355h-66.065v165.161h-33.032v-165.161h-84.016l-14.621 160.847 16.935 25.403 41.927-33.54 33.363 133.468 64.815-11.782c23.581-4.29 40.694-24.806 40.694-48.75zM759.742 763.871c9.097 0 16.516-7.403 16.516-16.516h33.032c0 21.5-13.855 39.669-33.032 46.508v36.073h-33.032v-33.032h-33.032v-49.548c0-27.315 22.234-49.548 49.548-49.548 9.097 0 16.516-7.403 16.516-16.516v-16.516h-16.516c-9.097 0-16.516 7.403-16.516 16.516h-33.032c0-21.5 13.855-39.669 33.032-46.508v-36.073h33.032v33.032h33.032v49.548c0 27.315-22.234 49.548-49.548 49.548-9.097 0-16.516 7.403-16.516 16.516v16.516zM941.419 169.29v330.323h-33.032v66.065h-44.508c46.806 32.903 77.54 87.202 77.54 148.645 0 100.169-81.508 181.677-181.677 181.677s-181.677-81.508-181.677-181.677c0-61.444 30.734-115.742 77.54-148.645h-44.508v-66.065h-33.032v-330.323h-82.581v-297.29h528.516v297.29zM611.097 714.323c0 81.968 66.694 148.645 148.645 148.645s148.645-66.677 148.645-148.645-66.694-148.645-148.645-148.645-148.645 66.677-148.645 148.645zM644.129 532.645h231.226v-33.032h-231.226zM611.097 466.581h297.29v-297.29h-297.29zM710.194-94.968h-66.065v165.161h66.065zM875.355-94.968h-66.065v165.161h66.065zM990.968-94.968h-82.581v198.194h-132.129v-198.194h-33.032v198.194h-132.129v-198.194h-82.581v231.226h462.452zM644.129 433.548v-231.226h231.226v231.226zM842.323 334.452h-66.065v66.065h66.065zM743.226 400.516v-66.065h-66.065v66.065zM677.161 301.419h66.065v-66.065h-66.065zM776.258 235.355v66.065h66.065v-66.065zM330.323 103.226h-330.323v-33.032h363.355v30.161l73.71-63.194-73.71-63.194v30.161h-363.355v-33.032h330.323v-68.935l157.516 135-157.516 135zM0 169.29h33.032v-33.032h-33.032zM66.065 169.29h33.032v-33.032h-33.032zM132.129 169.29h33.032v-33.032h-33.032zM0-61.935h33.032v-33.032h-33.032zM66.065-61.935h33.032v-33.032h-33.032zM132.129-61.935h33.032v-33.032h-33.032z" />
<glyph unicode="&#xe907;" glyph-name="statue" data-tags="statue" d="M840.073 439.54c-90.403 68.565-198.516 111.024-310.992 122.702 2.29 21.831 11.887 42.065 27.629 57.806l4.839 4.855v72.903h-33.032l-172.944-52.452c-34.863-10.726-58.282-42.435-58.282-78.919v-0.758h-3.040c-117.395 0-226.371-58.315-291.476-155.992l-2.774-4.161v-43.024l2.774-4.169c65.105-97.694 174.081-156.008 291.476-156.008h36.073v-33.032h33.032v-79.258l-77.081-185h-220.21v-33.032h891.871v33.032h-286.274l-77.081 185v79.258h33.032v49.548c0 1.75-0.411 3.403-0.508 5.137 76.645 20.742 149.629 56.597 212.919 104.565 19.669-35.806 57.742-60.153 101.395-60.153h82.581v16.516c0 42.081-22.677 78.863-56.371 99.097 33.694 20.234 56.371 57.016 56.371 99.097v16.516h-82.581c-43.621 0-81.653-24.298-101.347-60.073zM330.323 566.435c0 21.887 14.056 40.927 34.968 47.355l163.226 50.226v-25.702c-18.484-20.565-29.677-46.113-32.371-73.476-10.145 0.508-20.315 0.839-30.508 0.839h-135.315zM33.032 395.444c40.532 58.831 98.863 101.331 165.161 122.355v-267.581c-44.145 13.992-84.677 37.605-118.847 69.137 33.871 3.702 66.355 15.315 94.984 34.403l-18.323 27.484c-29.71-19.823-64.242-30.274-99.935-30.274h-6.589c-5.734 6.952-11.282 14.089-16.452 21.589zM567.048 70.194l13.758-33.032h-203.677l13.758 33.032zM608.339-28.903h-258.742l13.758 33.032h231.226zM322.065-94.968l13.758 33.032h286.274l13.758-33.032zM561.548 103.226h-165.161v66.065h165.161zM594.581 202.323h-231.226v16.516c0 27.315 22.234 49.548 49.548 49.548h132.129c27.315 0 49.548-22.234 49.548-49.548zM825.806 358.976c-61.194-47.581-132.492-82.895-207.347-103.137-13.621 26.903-41.25 45.581-73.427 45.581h-132.129c-39.871 0-73.234-28.427-80.911-66.065h-37.742c-21.419 0-42.492 2.266-63.024 6.411v284.468c20.532 4.145 41.621 6.411 63.024 6.411h171.387c130.032 0 257.605-43.847 360.169-123.621zM989.298 301.419h-47.879c-39.887 0-73.25 28.427-80.911 66.065h47.879c39.887 0 73.25-28.427 80.911-66.065zM908.387 400.516h-47.879c7.677 37.637 41.024 66.065 80.911 66.065h47.879c-7.661-37.637-41.024-66.065-80.911-66.065zM165.161 450.065c0-9.121-7.395-16.516-16.516-16.516s-16.516 7.395-16.516 16.516 7.395 16.516 16.516 16.516 16.516-7.395 16.516-16.516zM66.065 664.774h231.226c36.435 0 66.065 29.629 66.065 66.065 0 31.234-21.855 57.331-51.032 64.185-6.935 38.548-40.581 67.944-81.097 67.944-7.661 0-15.258-1.105-22.71-3.323-18.71 22.976-46.395 36.355-76.387 36.355-54.653 0-99.097-44.444-99.097-99.097 0-2.992 0.185-5.96 0.444-8.935-19.879-11.411-33.476-32.605-33.476-57.129 0-36.435 29.629-66.065 66.065-66.065zM66.065 763.871c18.218 0 33.032-14.815 33.032-33.032h33.032c0 36.435-29.629 66.065-66.065 66.065 0 36.435 29.629 66.065 66.065 66.065 23.056 0 44.081-11.944 56.234-31.944l7.831-12.847 13.508 6.589c7.056 3.435 14.29 5.169 21.524 5.169 22.613 0 41.508-15.306 47.435-36.040-27.323-8.089-47.435-33.145-47.435-63.056h33.032c0 18.218 14.815 33.032 33.032 33.032s33.032-14.815 33.032-33.032-14.815-33.032-33.032-33.032h-231.226c-18.218 0-33.032 14.815-33.032 33.032s14.815 33.032 33.032 33.032zM726.71 598.71h231.226c36.435 0 66.065 29.629 66.065 66.065 0 24.524-13.597 45.718-33.476 57.129 0.258 2.976 0.444 5.944 0.444 8.935 0 54.653-44.444 99.097-99.097 99.097-29.992 0-57.677-13.379-76.387-36.355-7.452 2.218-15.048 3.323-22.71 3.323-40.516 0-74.161-29.395-81.097-67.944-29.177-6.855-51.032-32.952-51.032-64.185 0-36.435 29.629-66.065 66.065-66.065zM726.71 697.806c18.218 0 33.032-14.815 33.032-33.032h33.032c0 29.911-20.113 54.968-47.435 63.056 5.927 20.734 24.823 36.040 47.435 36.040 7.234 0 14.468-1.734 21.524-5.169l13.508-6.573 7.831 12.847c12.153 19.984 33.177 31.927 56.234 31.927 36.435 0 66.065-29.629 66.065-66.065-36.435 0-66.065-29.629-66.065-66.065h33.032c0 18.218 14.815 33.032 33.032 33.032s33.032-14.815 33.032-33.032-14.815-33.032-33.032-33.032h-231.226c-18.218 0-33.032 14.815-33.032 33.032s14.815 33.032 33.032 33.032zM0-94.968h33.032v-33.032h-33.032zM990.968-94.968h33.032v-33.032h-33.032zM264.258 499.613h66.065v-33.032h-66.065zM264.258 433.548h66.065v-33.032h-66.065zM264.258 367.484h66.065v-33.032h-66.065zM363.355 499.613h66.065v-33.032h-66.065zM363.355 433.548h66.065v-33.032h-66.065zM363.355 367.484h66.065v-33.032h-66.065zM462.452 499.613h66.065v-33.032h-66.065zM462.452 433.548h66.065v-33.032h-66.065zM462.452 367.484h66.065v-33.032h-66.065zM561.548 499.613h66.065v-33.032h-66.065zM561.548 433.548h66.065v-33.032h-66.065zM561.548 367.484h66.065v-33.032h-66.065zM660.645 433.548h66.065v-33.032h-66.065zM660.645 367.484h66.065v-33.032h-66.065zM264.258 301.419h66.065v-33.032h-66.065z" />
<glyph unicode="&#xe908;" glyph-name="buildings" data-tags="buildings" d="M990.968 565.677v66.065h-33.032v66.065h-33.032v66.065h-231.226v-66.065h-33.032v-66.065h-33.032v-66.065h-33.032v-693.677h429.419v693.677zM726.71 730.839h165.161v-33.032h-165.161zM693.677 664.774h231.226v-33.032h-231.226zM660.645 598.71h297.29v-33.032h-297.29zM990.968 532.645v-33.032h-363.355v33.032zM792.774 466.581v-66.065h-66.065v66.065zM891.871 4.129h-66.065v66.065h66.065zM726.71 268.387h66.065v-66.065h-66.065zM726.71 169.29h66.065v-66.065h-66.065zM726.71 70.194h66.065v-66.065h-66.065zM891.871 103.226h-66.065v66.065h66.065zM891.871 202.323h-66.065v66.065h66.065zM891.871 301.419h-66.065v66.065h66.065zM792.774 301.419h-66.065v66.065h66.065zM726.71-28.903h66.065v-66.065h-66.065zM825.806-28.903h66.065v-66.065h-66.065zM891.871 400.516h-66.065v66.065h66.065zM627.613 466.581h66.065v-561.548h-66.065zM924.903-94.968v561.548h66.065v-561.548zM528.516 334.452h-33.032v203.202l-66.065 99.097v127.121h-40.395l-82.565 132.129h-51.355l-82.565-132.129h-40.411v-127.121l-66.065-99.097v-203.202h-33.032v-66.065h-33.032v-396.387h561.548v396.387h-33.032zM396.387 268.387v33.032h99.097v-33.032zM412.903 601.96l46.21-69.315h-92.419zM273.427 862.968h14.71l61.952-99.097h-138.597zM396.387 730.839v-94.089l-66.065-99.097v-5.008h-99.097v5.008l-66.065 99.097v94.089zM148.645 601.96l46.21-69.315h-92.419zM66.065 301.419h99.097v-33.032h-99.097zM198.194-94.968h-165.161v330.323h165.161zM330.323-94.968h-99.097v363.355h-33.032v66.065h-99.097v165.161h363.355v-165.161h-99.097v-66.065h-33.032zM528.516-94.968h-165.161v330.323h165.161zM429.419 466.581h-297.29v-99.097h297.29zM297.29 433.548h33.032v-33.032h-33.032zM264.258 400.516h-33.032v33.032h33.032zM165.161 433.548h33.032v-33.032h-33.032zM396.387 400.516h-33.032v33.032h33.032zM165.161 202.323h-99.097v-99.097h99.097zM132.129 136.258h-33.032v33.032h33.032zM165.161 70.194h-99.097v-99.097h99.097zM132.129 4.129h-33.032v33.032h33.032zM495.484 169.29h-99.097v-99.097h99.097zM462.452 103.226h-33.032v33.032h33.032zM495.484 37.161h-99.097v-99.097h99.097zM462.452-28.903h-33.032v33.032h33.032zM363.355 697.806h-165.161v-99.097h165.161zM231.226 664.774h33.032v-33.032h-33.032zM330.323 631.742h-33.032v33.032h33.032z" />
<glyph unicode="&#xe909;" glyph-name="calculation" data-tags="calculation" d="M953.806 398.847v232.895c36.435 0 66.065 29.629 66.065 66.065s-29.629 66.065-66.065 66.065v132.129h-568.387l-158.323-158.323v-69.565l-207.363-138.242 18.323-27.484 56.911 37.935v-271.935h132.129v-330.323h431.089c7.677-37.637 41.024-66.065 80.911-66.065h198.194c45.532 0 82.581 37.048 82.581 82.581v363.355c0 39.871-28.427 73.234-66.065 80.911zM540.903 674.984l-45.653 22.823 45.653 22.823zM573.935 730.839h313.806v-66.065h-313.806zM986.839 697.806c0-18.218-14.815-33.032-33.032-33.032h-33.032v66.065h33.032c18.218 0 33.032-14.815 33.032-33.032zM375.742 839.613v-92.258h-92.258zM128 562.339l148.645 99.097 148.645-99.097v-260.919h-66.065v82.581c0 45.532-37.048 82.581-82.581 82.581s-82.581-37.048-82.581-82.581v-82.581h-66.065zM326.194 301.419h-99.097v82.581c0 27.315 22.234 49.548 49.548 49.548s49.548-22.234 49.548-49.548zM656.516 317.935v-346.839h-396.387v297.29h198.194v271.935l56.895-37.935 18.323 27.484-256.895 171.274-16.516-11.016v24.194h148.645v148.645h512v-99.097h-367.25l-132.129-66.065 132.129-66.065h367.25v-231.226h-181.677c-45.532 0-82.581-37.048-82.581-82.581zM986.839-45.419c0-27.315-22.234-49.548-49.548-49.548h-198.194c-27.315 0-49.548 22.234-49.548 49.548v363.355c0 27.315 22.234 49.548 49.548 49.548h198.194c27.315 0 49.548-22.234 49.548-49.548zM722.581 202.323h231.226v132.129h-231.226zM755.613 301.419h165.161v-66.065h-165.161zM722.581-28.903c0-18.218 14.815-33.032 33.032-33.032h165.161c18.218 0 33.032 14.815 33.032 33.032v198.194h-231.226zM755.613 4.129h33.032v-33.032h-33.032zM854.71 70.194v-33.032h-33.032v33.032zM821.677 103.226v33.032h33.032v-33.032zM887.742 70.194h33.048v-33.032h-33.048zM854.71 4.129v-33.032h-33.032v33.032zM788.645 37.161h-33.032v33.032h33.032zM887.742-28.903v33.032h33.065v-33.032zM920.774 103.226h-33.032v33.032h33.032zM788.645 136.258v-33.032h-33.032v33.032zM243.613 499.613h66.065c18.218 0 33.032 14.815 33.032 33.032v33.032c0 18.218-14.815 33.032-33.032 33.032h-66.065c-18.218 0-33.032-14.815-33.032-33.032v-33.032c0-18.218 14.815-33.032 33.032-33.032zM243.613 565.677h66.065l0.032-33.032h-66.097zM187.871 701.427l-20.645 25.79-72.258-57.823-72.258 57.823-20.645-25.79 92.903-74.306zM78.452 763.871h33.032v-33.032h-33.032zM293.161 235.355h330.323v-33.032h-330.323zM359.226 169.29h264.258v-33.032h-264.258zM293.161 169.29h33.032v-33.032h-33.032zM293.161 103.226h330.323v-33.032h-330.323zM590.452 37.161h33.032v-33.032h-33.032zM293.161 37.161h264.258v-33.032h-264.258zM573.935 598.71h313.806v-33.032h-313.806zM573.935 532.645h33.032v-33.032h-33.032zM640 532.645h247.742v-33.032h-247.742zM573.935 466.581h247.742v-33.032h-247.742zM854.71 466.581h33.032v-33.032h-33.032zM78.452 829.935h33.032v-33.032h-33.032zM78.452 896h33.032v-33.032h-33.032zM2.065 149.153l20.645-25.79 72.258 57.823 72.258-57.823 20.645 25.79-92.903 74.306zM78.452 119.742h33.032v-33.032h-33.032zM78.452 53.677h33.032v-33.032h-33.032zM78.452-12.387h33.032v-33.032h-33.032z" />
<glyph unicode="&#xe90a;" glyph-name="church" data-tags="church" d="M957.935 565.677v66.065h33.032v16.516c0 58.121-43.153 106.234-99.097 114.29v34.355h33.032v33.032h-33.032v33.032h-33.032v-33.032h-33.032v-33.032h33.032v-34.355c-55.944-8.056-99.097-56.169-99.097-114.29v-16.516h33.032v-66.065h-44.266l-219.992 157.137v74.089h66.065v33.032h-66.065v66.065h-33.032v-66.065h-66.065v-33.032h66.065v-74.089l-219.992-157.137h-44.266v66.065h33.032v16.516c0 58.121-43.153 106.234-99.097 114.29v34.355h33.032v33.032h-33.032v33.032h-33.032v-33.032h-33.032v-33.032h33.032v-34.355c-55.944-8.056-99.097-56.169-99.097-114.29v-16.516h33.032v-66.065h-66.065v-693.677h1024v693.677zM875.355 730.839c39.887 0 73.25-28.427 80.911-66.065h-161.839c7.677 37.637 41.040 66.065 80.927 66.065zM825.806 631.742h99.097v-66.065h-99.097zM990.968 532.645v-363.355h-231.226v363.355zM297.29 540.669l214.71 153.371 214.71-153.371v-56.629l-214.71 168.694-214.71-168.694zM627.613 268.387h-66.065v99.097h66.065zM528.516 400.516v-132.129h-33.032v132.129h-132.129v-132.129h-66.065v173.653l214.71 168.694 214.71-168.694v-173.653h-66.065v132.129zM462.452 268.387h-66.065v99.097h66.065zM297.29 235.355h429.419v-33.032h-429.419zM148.645 730.839c39.887 0 73.25-28.427 80.911-66.065h-161.823c7.661 37.637 41.024 66.065 80.911 66.065zM99.097 631.742h99.097v-66.065h-99.097zM264.258 532.645v-363.355h-231.226v363.355zM198.194-94.968h-99.097v148.645c0 9.113 7.419 16.516 16.516 16.516h66.065c9.097 0 16.516-7.403 16.516-16.516zM231.226-94.968v148.645c0 27.315-22.234 49.548-49.548 49.548h-66.065c-27.315 0-49.548-22.234-49.548-49.548v-148.645h-33.032v231.226h231.226v-231.226zM462.452-94.968h-99.097v148.645c0 9.113 7.419 16.516 16.516 16.516h66.065c9.097 0 16.516-7.403 16.516-16.516zM660.645-94.968h-99.097v148.645c0 9.113 7.419 16.516 16.516 16.516h66.065c9.097 0 16.516-7.403 16.516-16.516zM693.677-94.968v148.645c0 27.315-22.234 49.548-49.548 49.548h-66.065c-27.315 0-49.548-22.234-49.548-49.548v-148.645h-33.032v148.645c0 27.315-22.234 49.548-49.548 49.548h-66.065c-27.315 0-49.548-22.234-49.548-49.548v-148.645h-33.032v264.258h429.419v-264.258zM924.903-94.968h-99.097v148.645c0 9.113 7.419 16.516 16.516 16.516h66.065c9.097 0 16.516-7.403 16.516-16.516zM957.935-94.968v148.645c0 27.315-22.234 49.548-49.548 49.548h-66.065c-27.315 0-49.548-22.234-49.548-49.548v-148.645h-33.032v231.226h231.226v-231.226zM512 565.677c-36.435 0-66.065-29.629-66.065-66.065s29.629-66.065 66.065-66.065 66.065 29.629 66.065 66.065-29.629 66.065-66.065 66.065zM512 466.581c-18.218 0-33.032 14.815-33.032 33.032s14.815 33.032 33.032 33.032 33.032-14.815 33.032-33.032-14.815-33.032-33.032-33.032zM957.935 334.452h-165.161v-132.129h165.161zM924.903 235.355h-99.097v66.065h99.097zM957.935 499.613h-165.161v-132.129h165.161zM924.903 400.516h-99.097v66.065h99.097zM231.226 334.452h-165.161v-132.129h165.161zM198.194 235.355h-99.097v66.065h99.097zM231.226 499.613h-165.161v-132.129h165.161zM198.194 400.516h-99.097v66.065h99.097z" />
<glyph unicode="&#xe90b;" glyph-name="company" data-tags="company" d="M924.946 413.446l-33.017 7.505v210.434h-33.017v132.067h-66.034l-132.067-37.079v-94.988h-33.017v-150.405l-33.017 7.513v241.943h-66.034v95.617l-293.371 69.040-69.814 0.427v-165.084h-62.003l-103.556-365.74 95.746-459.68h-29.236v-33.017h891.454v33.017h-33.017zM132.543 235.183v33.017h33.017v-33.017zM198.576 268.199h33.017v-33.017h-33.017zM264.61 268.199h33.017v-33.017h-33.017zM330.644 268.199h33.017v-33.017h-33.017zM396.677 268.199h33.017v-33.017h-33.017zM462.711 268.199h33.017v-33.017h-33.017zM132.543 400.267v33.017h33.017v-33.017zM198.576 433.283h33.017v-33.017h-33.017zM264.61 433.283h33.017v-33.017h-33.017zM330.644 433.283h33.017v-33.017h-33.017zM396.677 433.283h33.017v-33.017h-33.017zM462.711 433.283h33.017v-33.017h-33.017zM891.93 387.095v-482.081h-363.185v561.286h14.662zM693.829 701.481l101.364 28.954h30.703v-99.050h-132.067zM660.812 598.367h198.101v-169.921l-198.101 45.019zM198.576 862.502h31.106l266.045-62.6v-69.468h-297.151zM231.593-94.986v181.592c0 9.117 7.4 16.508 16.508 16.508h132.067c9.117 0 16.508-7.392 16.508-16.508v-181.592zM380.169 136.132h-132.067c-27.302 0-49.525-22.215-49.525-49.525v-181.592h-69.121l-95.48 458.471 94.544 333.933h433.241v-201.43l-12.841 2.918-53.193 0.411v-33.017h-396.202v-99.050h396.202v-66.034h-396.202v-99.050h396.202v-297.151h-66.034v181.592c0 27.31-22.215 49.525-49.525 49.525zM528.745 631.384h-363.185v-99.050h363.185zM330.644 598.367h33.017v-33.017h-33.017zM297.627 565.351h-33.017v33.017h33.017zM396.677 598.367h33.017v-33.017h-33.017zM198.576 598.367h33.017v-33.017h-33.017zM495.728 565.351h-33.017v33.017h33.017zM858.913 103.115h-297.151v-99.050h297.151zM759.862 70.098v-33.017h-33.017v33.017zM693.829 70.098v-33.017h-33.017v33.017zM594.778 70.098h33.017v-33.017h-33.017zM825.896 37.082h-33.017v33.017h33.017zM858.913 235.183h-297.151v-99.050h297.151zM759.862 202.166v-33.017h-33.017v33.017zM693.829 202.166v-33.017h-33.017v33.017zM594.778 202.166h33.017v-33.017h-33.017zM825.896 169.149h-33.017v33.017h33.017zM990.98-94.986h33.017v-33.017h-33.017zM0.476-94.986h33.017v-33.017h-33.017z" />
<glyph unicode="&#xe90c;" glyph-name="construction" data-tags="construction" d="M1016.355 730.839l-157.516 139.565v25.597h-99.097v-21.855l-330.323-132.145v-143.29h66.065v-132.129c-12.169 0-22.71-6.685-28.444-16.516h-37.621v115.613h-33.032v165.161h-66.065v99.097h-33.032v66.065h-165.161v-66.065h-33.032v-99.097h-66.065v-165.161h-33.032v-528.516h132.129v-132.129h-66.065v-33.032h891.871v33.032h-66.065v132.129h33.032v198.194h-33.032v363.355h132.129v132.129zM966.54 730.839h-74.669v66.065h-33.032v29.363zM858.839 763.871v-33.032h-99.097v33.032zM825.806 862.968v-66.065h-33.032v66.065zM759.742 838.573v-41.669h-33.032v-66.065h-236.315zM495.484 433.548h33.032l0.016-132.129h-33.048zM528.516 268.387c12.169 0 22.71 6.685 28.444 16.516h136.718v99.097h-33.032v66.065h-103.685c-5.734 9.831-16.274 16.516-28.444 16.516v132.129h198.194v-363.355h-297.29v49.548h37.621c5.734-9.831 16.274-16.516 28.444-16.516zM561.548 417.032h66.065v-33.032h-66.065zM561.548 350.968h99.097v-33.032h-99.097zM891.871 100.766l-81.242 101.556h81.242zM132.129 70.194v101.556l81.242-101.556zM636.185 202.323l105.702-132.129h-89.815l-105.702 132.129zM504.056 202.323l105.702-132.129h-89.815l-105.702 132.129zM371.927 202.323l105.702-132.129h-89.815l-105.702 132.129zM239.798 202.323l105.702-132.129h-89.815l-105.702 132.129zM792.774 37.161v-132.129h-561.548v132.129zM784.202 70.194l-105.702 132.129h89.815l105.702-132.129zM783.097 235.355l26.194 26.194 26.194-26.194zM759.742 258.71v52.387l26.194-26.194zM766.581 350.968l42.71 42.71 42.71-42.71-42.71-42.71zM759.742 390.839v52.387l26.194-26.194zM766.581 483.097l42.71 42.71 42.71-42.71-42.71-42.71zM759.742 522.968v52.387l26.194-26.194zM832.645 284.903l26.194 26.194v-52.387zM858.839 390.839l-26.194 26.194 26.194 26.194zM832.645 549.161l26.194 26.194v-52.387zM809.29 572.516l-26.194 26.194h52.387zM462.452 384h-99.097v33.032h99.097zM330.323 450.065v-16.516h-231.226v33.032h231.226zM99.097 400.516h231.226v-33.032h-231.226zM99.097 334.452h231.226v-33.032h-231.226zM363.355 350.968h99.097v-33.032h-99.097zM165.161 862.968h99.097v-33.032h-99.097zM132.129 796.903h165.161v-66.065h-165.161zM66.065 697.806h297.29v-132.129h-33.032v99.097h-99.097v-99.097h-33.032v99.097h-99.097v-99.097h-33.032zM297.29 565.677h-33.032v66.065h33.032zM165.161 565.677h-33.032v66.065h33.032zM33.032 70.194v462.452h363.355v-82.581h-33.032v49.548h-297.29v-231.226h297.29v16.516h33.032v-49.548h-297.29v-165.161zM165.161 37.161h33.032v-132.129h-33.032zM858.839-94.968h-33.032v132.129h33.032zM990.968 631.742h-528.516v66.065h528.516zM0-94.968h33.032v-33.032h-33.032zM990.968-94.968h33.032v-33.032h-33.032z" />
<glyph unicode="&#xe90d;" glyph-name="house-design" data-tags="house-design" d="M941.419 202.323c45.532 0 82.581 37.048 82.581 82.581v528.516c0 45.532-37.048 82.581-82.581 82.581h-858.839c-45.532 0-82.581-37.048-82.581-82.581v-528.516c0-45.532 37.048-82.581 82.581-82.581h247.742v-33.032h-16.516c-27.315 0-49.548-22.234-49.548-49.548v-49.548h495.484v49.548c0 27.315-22.234 49.548-49.548 49.548h-16.516v33.032h99.097v-16.516c0-27.315 22.234-49.548 49.548-49.548h132.129c9.097 0 16.516-7.403 16.516-16.516s-7.419-16.516-16.516-16.516h-66.065c-27.315 0-49.548-22.234-49.548-49.548v-16.516h-16.516c-63.75 0-115.613-51.879-115.613-115.613v-49.548h297.29v49.548c0 63.734-51.863 115.613-115.613 115.613h-16.516v16.516c0 9.113 7.419 16.516 16.516 16.516h66.065c27.315 0 49.548 22.234 49.548 49.548s-22.234 49.548-49.548 49.548h-132.129c-9.097 0-16.516 7.403-16.516 16.516v16.516zM858.839 4.129h33.032v-16.516c0-9.113-7.419-16.516-16.516-16.516s-16.516 7.403-16.516 16.516zM990.968-78.452v-16.516h-231.226v16.516c0 39.871 28.427 73.234 66.065 80.911v-14.847c0-27.315 22.234-49.548 49.548-49.548s49.548 22.234 49.548 49.548v14.847c37.637-7.677 66.065-41.040 66.065-80.911zM82.581 862.968h858.839c27.315 0 49.548-22.234 49.548-49.548v-478.968h-323.484l-33.032 33.032h-244.903l-33.032-33.032h-323.484v478.968c0 27.315 22.234 49.548 49.548 49.548zM33.032 284.903v16.516h337.161l33.032 33.032h217.548l33.032-33.032h337.161v-16.516c0-27.315-22.234-49.548-49.548-49.548h-858.839c-27.315 0-49.548 22.234-49.548 49.548zM726.71 119.742v-16.516h-429.419v16.516c0 9.113 7.419 16.516 16.516 16.516h396.387c9.097 0 16.516-7.403 16.516-16.516zM660.645 169.29h-297.29v33.032h297.29zM578.065 301.419h33.032v-33.032h-33.032zM478.968 301.419h66.065v-33.032h-66.065zM412.903 301.419h33.032v-33.032h-33.032zM594.581 611.919l77.081 184.984h286.274v33.032h-308.306l-82.581-198.194h-108.855c-12.871 58.008-54.653 106.774-111.355 127.524v70.669h-33.032v-70.669c-56.702-20.75-98.484-69.516-111.355-127.524h-136.387v-231.226h528.516zM495.484 433.548h-33.032v99.097h33.032zM363.355 433.548h-66.065v115.613c0 9.097 7.419 16.516 16.516 16.516h33.032c9.097 0 16.516-7.419 16.516-16.516zM346.839 598.71h-33.032c-27.315 0-49.548-22.234-49.548-49.548v-115.613h-33.032v160.54c0 12.944 1.863 25.565 5.202 37.653h187.774c3.355-12.089 5.218-24.71 5.218-37.653v-160.54h-33.032v115.613c0 27.315-22.234 49.548-49.548 49.548zM198.194 433.548h-33.032v99.097h33.032zM330.323 730.097c34.548-11.137 62.726-34.984 80.105-65.323h-160.21c17.379 30.339 45.556 54.185 80.105 65.323zM99.097 598.71h99.298c-0.056-1.556-0.202-3.073-0.202-4.621v-28.411h-66.065v-132.129h-33.032zM561.548 433.548h-33.032v132.129h-66.065v28.411c0 1.548-0.145 3.089-0.202 4.621h99.298zM759.742 763.871h198.194v-33.032h-198.194zM693.677 763.871h33.032v-33.032h-33.032zM693.677 697.806h264.258v-33.032h-264.258zM924.903 631.742h33.032v-33.032h-33.032zM693.677 631.742h198.194v-33.032h-198.194zM660.645 367.484h297.29v198.194h-297.29zM693.677 532.645h231.226v-132.129h-231.226z" />
<glyph unicode="&#xe90e;" glyph-name="engineers" data-tags="engineers" d="M951.661 622.331l-59.79 7.476v22.815c29.911 20.919 49.548 55.556 49.548 94.734v16.516h33.032v33.032h-33.032v16.516c0 45.532-37.048 82.581-82.581 82.581h-66.065c-45.532 0-82.581-37.048-82.581-82.581v-16.516h-33.032v-33.032h33.032v-16.516c0-39.194 19.637-73.831 49.548-94.734v-22.815l-59.79-7.476c-22.556-2.815-42.645-14.887-55.919-32.685l-65.968 7.331v22.613c29.911 20.919 49.548 55.556 49.548 94.734v16.516h33.032v33.032h-33.032v16.516c0 45.532-37.048 82.581-82.581 82.581h-66.065c-45.532 0-82.581-37.048-82.581-82.581v-16.516h-33.032v-33.032h33.032v-16.516c0-39.194 19.637-73.831 49.548-94.734v-22.613l-65.968-7.331c-13.274 17.798-33.363 29.855-55.919 32.685l-59.79 7.476v22.815c29.911 20.919 49.548 55.556 49.548 94.734v16.516h33.032v33.032h-33.032v16.516c0 45.532-37.048 82.581-82.581 82.581h-66.065c-45.532 0-82.581-37.048-82.581-82.581v-16.516h-33.032v-33.032h33.032v-16.516c0-39.194 19.637-73.831 49.548-94.734v-22.815l-59.79-7.476c-41.242-5.137-72.339-40.387-72.339-81.935v-222.46c0-27.315 22.234-49.548 49.548-49.548 6.097 0 11.855 1.258 17.242 3.274l16.468-399.661h229.871l16.645 399.605c5.339-1.976 11.032-3.218 17.065-3.218 12.734 0 24.266 4.968 33.048 12.895v-13.605l17.194-395.677h229.823l17.226 396.387v12.879c8.79-7.927 20.298-12.879 33.032-12.879 6.097 0 11.855 1.258 17.242 3.274l16.468-399.661h229.871l16.645 399.605c5.339-1.976 11.032-3.218 17.065-3.218 27.315 0 49.548 22.234 49.548 49.548v222.46c0 41.548-31.097 76.798-72.339 81.935zM881.315 597.831l10.524-1.315-22.048-51.468-20.629 20.629zM908.387 813.419v-16.516h-46.573l10.653 63.919c20.677-5.968 35.919-24.839 35.919-47.403zM812.266 862.968h27.065l-11.016-66.065h-5.048zM743.226 813.419c0 22.565 15.242 41.435 35.919 47.403l10.653-63.919h-46.573zM743.226 747.355v16.516h165.161v-16.516c0-45.532-37.048-82.581-82.581-82.581s-82.581 37.048-82.581 82.581zM825.806 631.742c11.476 0 22.565 1.734 33.032 4.871v-14.548l-33.032-33.032-33.032 33.032v14.548c10.468-3.137 21.556-4.871 33.032-4.871zM770.298 597.831l32.153-32.153-20.629-20.629-22.048 51.468zM594.581 780.387v-16.516h-46.573l10.653 63.919c20.677-5.968 35.919-24.839 35.919-47.403zM498.46 829.935h27.065l-11.016-66.065h-5.048zM429.419 780.387c0 22.565 15.242 41.435 35.919 47.403l10.653-63.919h-46.573zM429.419 714.323v16.516h165.161v-16.516c0-45.532-37.048-82.581-82.581-82.581s-82.581 37.048-82.581 82.581zM512 598.71c11.476 0 22.565 1.734 33.032 4.871v-12.548l-33.032-22.016-33.032 22.016v12.548c10.468-3.137 21.556-4.871 33.032-4.871zM458.29 565.113l53.71-35.806 53.71 35.806 83.903-9.315c25.121-2.806 44.065-23.96 44.065-49.25v-106.032c0-9.097-7.419-16.516-16.516-16.516h-99.097c-9.097 0-16.516 7.419-16.516 16.516s7.419 16.516 16.516 16.516h82.581v99.097h-33.032v-66.065h-33.032v66.065h-165.161v-66.065h-33.032v66.065h-33.032v-99.097h82.581c9.097 0 16.516-7.419 16.516-16.516s-7.419-16.516-16.516-16.516h-99.097c-9.097 0-16.516 7.419-16.516 16.516v106.032c0 25.29 18.944 46.444 44.065 49.25zM412.903 284.903v66.065h16.516v-33.032h165.161v33.032h16.516l0.016-66.065zM462.452 447.024v36.073h99.097v-36.073c-19.177-6.839-33.032-25.008-33.032-46.508s13.855-39.669 33.032-46.508v-3.040h-99.097v3.040c19.177 6.839 33.032 25.008 33.032 46.508s-13.855 39.669-33.032 46.508zM269.161 595.903l-25.944-51.895-21.669 21.669 32.153 32.153zM214.016 406.661l-15.823-15.823-15.823 15.823 13.315 133.153 2.508 2.508 2.508-2.508zM280.774 813.419v-16.516h-46.573l10.653 63.919c20.677-5.968 35.919-24.839 35.919-47.403zM184.653 862.968h27.065l-11.016-66.065h-5.048zM115.613 813.419c0 22.565 15.242 41.435 35.919 47.403l10.653-63.919h-46.573zM115.613 747.355v16.516h165.161v-16.516c0-45.532-37.048-82.581-82.581-82.581s-82.581 37.048-82.581 82.581zM198.194 631.742c11.476 0 22.565 1.734 33.032 4.871v-14.548l-33.032-33.032-33.032 33.032v14.548c10.468-3.137 21.556-4.871 33.032-4.871zM142.685 597.831l32.153-32.153-21.669-21.669-25.944 51.895zM49.548 301.419c-9.097 0-16.516 7.419-16.516 16.516v222.46c0 24.935 18.661 46.073 43.403 49.161l16.024 2 51.661-103.306 14.685 14.685-10.855-108.565 50.242-50.242 50.242 50.242-10.855 108.565 14.685-14.685 51.661 103.306 16.024-2c8.468-1.056 16.298-4.371 22.992-9.242-27.258-13.645-45.653-41.661-45.653-73.766v-188.613h-198.194v181.677h-33.032v-181.677c0-9.097-7.419-16.516-16.516-16.516zM99.097 284.903h82.581v-379.871h-66.742zM214.71-94.968v379.871h82.565l-15.823-379.871zM346.839 301.419c-9.097 0-16.516 7.419-16.516 16.516v36.073c5.185-1.855 10.702-3.040 16.516-3.040h16.516v-33.032c0-9.097-7.419-16.516-16.516-16.516zM413.629 251.871h81.855v-346.839h-66.758zM528.516-94.968v346.839h81.855l-15.081-346.839zM677.161 301.419c-9.097 0-16.516 7.419-16.516 16.516v33.032h16.516c5.815 0 11.331 1.185 16.516 3.040v-36.073c0-9.097-7.419-16.516-16.516-16.516zM726.71 284.903h82.581v-379.871h-66.742zM842.323-94.968v379.871h82.565l-15.823-379.871zM990.968 317.935c0-9.097-7.419-16.516-16.516-16.516s-16.516 7.419-16.516 16.516v181.677h-33.032v-181.677h-198.194v188.613c0 32.105-18.395 60.137-45.653 73.766 6.677 4.871 14.524 8.185 22.992 9.242l21.621 2.71 45.024-105.056 55.113 55.113 55.113-55.113 45.024 105.056 21.621-2.71c24.742-3.089 43.403-24.226 43.403-49.161zM809.29 516.129h33.032v-33.032h-33.032zM809.29 450.065h33.032v-33.032h-33.032z" />
<glyph unicode="&#xe90f;" glyph-name="factory" data-tags="factory" d="M1021.823 136.258l-93.169 186.355-47.435 474.29h14.782c18.218 0 33.032 14.815 33.032 33.032v33.032c0 18.218-14.815 33.032-33.032 33.032h-231.226c-18.218 0-33.032-14.815-33.032-33.032v-33.032c0-18.218 14.815-33.032 33.032-33.032h14.782l-3.306-33.032h-77.54v132.129h-132.129v-132.129h-49.548v132.129h-132.129v-132.129h-49.548v132.129h-132.129v-132.129h-99.097v-99.097h33.032v-268.734c-20.992-37.871-33.032-81.379-33.032-127.653 0-83.129 39.258-158.524 101.016-207.274l-51.468-153.387v-35.726h94.621l46.097 143.194c7.992-2.347 16.153-4.274 24.46-5.863v-104.298c0-18.218 14.815-33.032 33.032-33.032h33.032c18.218 0 33.032 14.815 33.032 33.032v104.298c8.306 1.589 16.468 3.532 24.46 5.863l46.065-143.194h94.621v35.726l-51.468 153.387c3.669 2.887 7.137 5.992 10.637 9.081h123.411v-198.194h429.419v264.258zM592.403 169.29l66.065 132.129h243.839l66.065-132.129zM884.355 433.548h-207.935l6.605 66.065h194.726zM874.444 532.645h-188.113l6.605 66.065h174.903zM696.234 631.742l6.613 66.065h155.081l6.613-66.065zM673.113 400.516h214.548l6.605-66.065h-227.758zM848.024 796.903l6.605-66.065h-148.484l6.605 66.065zM664.774 862.968h231.226l0.016-33.032h-231.242zM499.613 862.968h66.065v-99.097h-66.065zM317.935 862.968h66.065v-99.097h-66.065zM136.258 862.968h66.065v-99.097h-66.065zM37.161 730.839h635.79l-3.306-33.032h-632.484zM499.613 268.387c0-11.218-1.040-22.202-2.629-33.032h-457.194c-1.589 10.831-2.629 21.815-2.629 33.032 0 11.25 1.073 22.218 2.645 33.032h457.161c1.573-10.815 2.645-21.782 2.645-33.032zM46.903 334.452c28.508 95.379 116.952 165.161 221.484 165.161s192.976-69.782 221.484-165.161zM124.218-94.968h-36.597l45.879 136.734c9.581-5.71 19.403-11.048 29.726-15.556zM251.871-94.968v198.194h33.032l0.016-198.194zM284.903 136.258h-33.032c-18.218 0-33.032-14.815-33.032-33.032v-60.363c-82.766 18.113-148.016 80.411-171.815 159.46h442.742c-23.798-79.048-89.048-141.347-171.815-159.46v60.363c-0.016 18.218-14.831 33.032-33.048 33.032zM449.153-94.968h-36.613l-39.008 121.177c10.323 4.492 20.161 9.831 29.726 15.556zM473.911 103.226c36.718 45.565 58.734 103.161 58.734 165.161 0 145.702-118.556 264.258-264.258 264.258-78.944 0-149.734-34.984-198.194-90.065v222.194h596.153l-34.226-342.161-93.169-186.355h26.726v-33.032zM862.968-94.968h-66.065v66.065h66.065zM862.968 4.129h-66.065v66.065h16.516c27.315 0 49.548-22.234 49.548-49.548zM763.871 4.129h-66.065v16.516c0 27.315 22.234 49.548 49.548 49.548h16.516zM697.806-28.903h66.065v-66.065h-66.065zM962.065-94.968h-66.065v115.613c0 45.532-37.048 82.581-82.581 82.581h-66.065c-45.532 0-82.581-37.048-82.581-82.581v-115.613h-66.065v231.226h363.355zM103.226 532.645h132.129v99.097h-132.129zM136.258 598.71h66.065v-33.032h-66.065zM284.903 532.645h132.129v99.097h-132.129zM317.935 598.71h66.065v-33.032h-66.065zM598.71 631.742h-132.129v-99.097h132.129zM565.677 565.677h-66.065v33.032h66.065z" />
<glyph unicode="&#xe910;" glyph-name="hospital" data-tags="hospital" d="M231.226 697.806h33.032v49.548h49.548v33.032h-49.548v49.548h-33.032v-49.548h-49.548v-33.032h49.548zM1024 747.355v66.065c0 27.315-22.234 49.548-49.548 49.548h-639.605c-23.29 20.5-53.726 33.032-87.105 33.032s-63.815-12.532-87.105-33.032h-111.089c-27.315 0-49.548-22.234-49.548-49.548v-66.065c0-21.5 13.855-39.669 33.032-46.508v-435.516c-19.177-6.823-33.032-24.992-33.032-46.492v-33.032c0-21.5 13.855-39.669 33.032-46.508v-267.298h990.968v346.839c0 21.5-13.855 39.669-33.032 46.508v435.5c19.177 6.839 33.032 25.008 33.032 46.508zM990.968 169.29h-498.524c1.855 5.185 3.040 10.702 3.040 16.516v33.032c0 5.815-1.185 11.331-3.040 16.516h482.008c9.113 0 16.516-7.403 16.516-16.516zM165.161 268.387v148.645c0 27.315 22.234 49.548 49.548 49.548h16.516v-198.194zM264.258 466.581h16.516c27.315 0 49.548-22.234 49.548-49.548v-148.645h-66.065zM280.774 499.613h-66.065c-45.532 0-82.581-37.048-82.581-82.581v-148.645h-66.065v429.419h67.419c7.218-12.435 16.419-23.589 27.153-33.032h-28.508c-18.218 0-33.032-14.815-33.032-33.032v-66.065c0-18.218 14.815-33.032 33.032-33.032h231.226c18.218 0 33.032 14.815 33.032 33.032v66.065c0 18.218-14.815 33.032-33.032 33.032h-28.508c10.734 9.444 19.919 20.597 27.153 33.032h67.419v-429.419h-66.065v148.645c0 45.532-37.048 82.581-82.581 82.581zM363.355 631.742l0.016-66.065h-231.242v66.065zM462.452 268.387v429.419h495.484v-429.419zM990.968 813.419v-66.065c0-9.097-7.403-16.516-16.516-16.516h-482.008c1.855 5.185 3.040 10.702 3.040 16.516v66.065c0 5.815-1.185 11.331-3.040 16.516h482.008c9.113 0 16.516-7.419 16.516-16.516zM462.452 813.419v-66.065c0-9.097-7.403-16.516-16.516-16.516h-70.411c2.742 10.589 4.347 21.605 4.347 33.032 0 24.081-6.573 46.605-17.871 66.065h83.935c9.113 0 16.516-7.419 16.516-16.516zM247.742 862.968c54.653 0 99.097-44.444 99.097-99.097s-44.444-99.097-99.097-99.097-99.097 44.444-99.097 99.097 44.444 99.097 99.097 99.097zM33.032 813.419c0 9.097 7.403 16.516 16.516 16.516h83.935c-11.298-19.46-17.871-41.984-17.871-66.065 0-11.427 1.605-22.444 4.347-33.032h-70.411c-9.113 0-16.516 7.419-16.516 16.516zM33.032 218.839c0 9.113 7.403 16.516 16.516 16.516h396.387c9.113 0 16.516-7.403 16.516-16.516v-33.032c0-9.113-7.403-16.516-16.516-16.516h-396.387c-9.113 0-16.516 7.403-16.516 16.516zM66.065 136.258h363.355v-231.226h-66.065v198.194h-231.226v-198.194h-66.065zM264.258 70.194h66.065v-165.161h-66.065zM231.226-94.968h-66.065v165.161h66.065zM660.645-28.903h-33.032v33.032h33.032zM660.645-61.935v-33.032h-33.032v33.032zM660.645 37.161h-33.032v33.032h16.516c9.113 0 16.516-7.403 16.516-16.516zM594.581 37.161h-33.032v16.516c0 9.113 7.403 16.516 16.516 16.516h16.516zM561.548 4.129h33.032v-33.032h-33.032zM561.548-61.935h33.032v-33.032h-33.032zM891.871-28.903h-33.032v33.032h33.032zM891.871-61.935v-33.032h-33.032v33.032zM891.871 37.161h-33.032v33.032h16.516c9.113 0 16.516-7.403 16.516-16.516zM825.806 37.161h-33.032v16.516c0 9.113 7.403 16.516 16.516 16.516h16.516zM792.774 4.129h33.032v-33.032h-33.032zM792.774-61.935h33.032v-33.032h-33.032zM924.903-94.968v148.645c0 27.315-22.234 49.548-49.548 49.548h-66.065c-27.315 0-49.548-22.234-49.548-49.548v-148.645h-66.065v148.645c0 27.315-22.234 49.548-49.548 49.548h-66.065c-27.315 0-49.548-22.234-49.548-49.548v-148.645h-66.065v231.226h528.516v-231.226zM792.774 664.774v-99.097h99.097v99.097zM858.839 598.71h-33.032v33.032h33.032zM660.645 565.677h99.097v99.097h-99.097zM693.677 631.742h33.032v-33.032h-33.032zM528.516 565.677h99.097v99.097h-99.097zM561.548 631.742h33.032v-33.032h-33.032zM792.774 433.548h99.097v99.097h-99.097zM825.806 499.613h33.032v-33.032h-33.032zM660.645 433.548h99.097v99.097h-99.097zM693.677 499.613h33.032v-33.032h-33.032zM528.516 433.548h99.097v99.097h-99.097zM561.548 499.613h33.032v-33.032h-33.032zM792.774 301.419h99.097v99.097h-99.097zM825.806 367.484h33.032v-33.032h-33.032zM660.645 301.419h99.097v99.097h-99.097zM693.677 367.484h33.032v-33.032h-33.032zM528.516 301.419h99.097v99.097h-99.097zM561.548 367.484h33.032v-33.032h-33.032z" />
<glyph unicode="&#xe911;" glyph-name="hotel" data-tags="hotel" d="M330.323 829.935h363.355v-33.032h-363.355zM1024 730.839h-198.194v33.032h-66.065v132.129h-495.484v-132.129h-66.065v-33.032h-198.194v-99.097h33.032v-759.742h957.935v759.742h33.032zM660.645-94.968h-99.097v132.129h99.097zM528.516 70.194v-165.161h-33.032v165.161h-165.161v-165.161h-33.032v231.226h429.419v-231.226h-33.032v165.161zM462.452-94.968h-99.097v132.129h99.097zM198.194 136.258h-66.065v33.032h66.065zM198.194 4.129h-66.065v33.032h66.065zM231.226 136.258h33.032v-231.226h-33.032zM759.742 136.258h33.032v-231.226h-33.032zM825.806 37.161h66.065v-33.032h-66.065zM825.806 169.29h66.065v-33.032h-66.065zM792.774 169.29h-561.548v33.032h561.548zM594.581 235.355v66.065h99.097v-66.065zM693.677 334.452h-99.097v66.065h99.097zM561.548 334.452h-99.097v66.065h99.097zM561.548 301.419v-66.065h-99.097v66.065zM693.677 433.548h-99.097v66.065h99.097zM561.548 433.548h-99.097v66.065h99.097zM429.419 433.548h-99.097v66.065h99.097zM330.323 400.516h99.097v-66.065h-99.097zM330.323 301.419h99.097v-66.065h-99.097zM759.742 235.355h-33.032v297.29h-429.419v-297.29h-33.032v237.75c0 32.323-7.363 63.798-21.274 92.573h538.032c-13.911-28.774-21.274-60.266-21.274-92.573zM611.097 614.298l-69.927 116.54h139.855zM710.194 715.25l69.927-116.54h-139.855zM581.927 598.71h-139.855l69.927 116.54zM412.903 614.298l-69.927 116.54h139.855zM383.734 598.71h-139.855l69.927 116.54zM792.774 641.815l-53.411 89.024h53.411zM297.29 862.968h429.419v-99.097h-429.419zM284.637 730.839l-53.411-89.024v89.024zM33.032 697.806h165.161v-33.032h-165.161zM66.065 631.742h132.129v-33.032h-99.097v-99.097h99.097v77.573l2.774-4.161c19.79-29.694 30.258-64.242 30.258-99.919v-237.75h-33.032v-33.032h-99.097v-99.097h99.097v-33.032h-99.097v-99.097h99.097v-66.065h-132.129zM165.161 565.677v-33.032h-33.032v33.032zM957.935-94.968h-132.129v66.065h99.097v99.097h-99.097v33.032h99.097v99.097h-99.097v33.032h-33.032v237.75c0 35.677 10.468 70.226 30.258 99.935l2.774 4.145v-77.573h99.097v99.097h-99.097v33.032h132.129zM858.839 532.645v33.032h33.032v-33.032zM990.968 664.774h-165.161v33.032h165.161zM198.194 466.581h-99.097v-99.097h99.097zM165.161 400.516h-33.032v33.032h33.032zM99.097 334.452v-99.097h99.097v99.097zM165.161 268.387h-33.032v33.032h33.032zM825.806 367.484h99.097v99.097h-99.097zM858.839 433.548h33.032v-33.032h-33.032zM924.903 334.452h-99.097v-99.097h99.097zM891.871 268.387h-33.032v33.032h33.032z" />
<glyph unicode="&#xe912;" glyph-name="house-plan" data-tags="house-plan" d="M991.126 628.063h29.044l-118.343 197.233h-351.811l-84.845 70.704-242.625-202.193h45.392v-164.361h-98.616v131.489h-82.18c-45.312 0-82.18-36.869-82.18-82.18v-624.571c0-45.32 36.869-82.18 82.18-82.18h772.495v427.338h131.489zM883.208 792.424l78.89-131.489h-299.693v32.872h45.4l-118.343 98.616zM465.172 853.2l151.841-126.521h-303.674zM300.811 693.807h328.721v-164.361h-65.744v49.308c0 45.312-36.861 82.18-82.18 82.18h-32.872c-45.312 0-82.18-36.869-82.18-82.18v-49.308h-65.744zM448.736 529.447h-49.308v49.308c0 27.182 22.126 49.308 49.308 49.308zM481.608 628.063c27.19 0 49.308-22.126 49.308-49.308v-49.308h-49.308zM37.834 578.755c0 27.182 22.126 49.308 49.308 49.308h49.308v-591.699h-49.308c-18.491 0-35.569-6.131-49.308-16.476zM826.765-95.124h-739.623c-27.182 0-49.308 22.118-49.308 49.308 0 27.182 22.126 49.308 49.308 49.308h82.18v493.082h657.443zM859.637 332.214v197.233h-197.233v98.616h295.849v-295.849zM284.375-62.252h427.338c45.32 0 82.18 36.861 82.18 82.18v361.594c0 45.312-36.861 82.18-82.18 82.18h-427.338c-45.312 0-82.18-36.869-82.18-82.18v-361.594c0-45.32 36.869-82.18 82.18-82.18zM235.067 19.929v115.052h197.233v-164.361h-147.925c-27.182 0-49.308 22.118-49.308 49.308zM563.788 430.83h65.744v-197.233h131.489v-65.744h-230.105v-197.233h-65.744v197.233h-230.105v65.744h328.721zM711.713-29.38h-147.925v164.361h197.233v-115.052c0-27.19-22.118-49.308-49.308-49.308zM761.021 381.522v-115.052h-98.616v164.361h49.308c27.19 0 49.308-22.126 49.308-49.308zM284.375 430.83h246.541v-164.361h-295.849v115.052c0 27.182 22.126 49.308 49.308 49.308z" />
<glyph unicode="&#xe913;" glyph-name="model" data-tags="model" d="M743.226 631.742c27.315 0 49.548 22.234 49.548 49.548s-22.234 49.548-49.548 49.548-49.548-22.234-49.548-49.548 22.234-49.548 49.548-49.548zM743.226 697.806c9.097 0 16.516-7.419 16.516-16.516s-7.419-16.516-16.516-16.516-16.516 7.419-16.516 16.516 7.419 16.516 16.516 16.516zM889.806 532.645l-41.984 99.71c6.984 14.879 11.016 31.427 11.016 48.935 0 46-27.073 85.702-66.065 104.298v77.379c0 18.218-14.815 33.032-33.032 33.032h-33.032c-18.218 0-33.032-14.815-33.032-33.032v-77.379c-38.992-18.597-66.065-58.298-66.065-104.298 0-17.508 4.032-34.056 11.016-48.935l-41.984-99.71h-84.645v363.355h-198.194v-363.355h-33.032v219.718l-82.581 123.871-82.581-123.871v-219.718h-115.613v-518.839l141.806-141.806h882.194v660.645zM923.089 368.444c1.202-2.839 1.815-5.863 1.815-8.968v-1.823c0-12.798-10.403-23.202-23.185-23.202-9.355 0-17.742 5.565-21.379 14.169l-94.798 225.185c15.129 5.976 28.718 14.992 39.968 26.387zM924.903 202.323v-165.161h-198.194v165.161zM743.226 565.677c3.274 0 6.492 0.218 9.694 0.492l37.556-89.202c-29.839-13.29-64.661-13.29-94.5 0l37.556 89.202c3.202-0.274 6.419-0.492 9.694-0.492zM726.71 862.968h33.032v-67.387c-5.419 0.774-10.903 1.323-16.516 1.323s-11.097-0.548-16.516-1.323zM743.226 763.871c45.532 0 82.581-37.048 82.581-82.581s-37.048-82.581-82.581-82.581-82.581 37.048-82.581 82.581 37.048 82.581 82.581 82.581zM700.911 573.806l-94.823-225.185c-3.613-8.605-12-14.169-21.355-14.169-12.782 0-23.185 10.403-23.185 23.185v1.823c0 3.105 0.613 6.121 1.815 8.984l97.581 231.734c11.234-11.379 24.839-20.395 39.968-26.371zM99.097 235.355h148.645v-99.097h82.581v-33.032h-231.226zM280.774 169.29v99.097h-181.677v33.032h99.097v16.516c0 27.315 22.234 49.548 49.548 49.548h16.516v66.065h33.032v-148.645h198.194v148.645h59.444l-22-52.258c-2.927-6.935-4.411-14.266-4.411-21.815v-1.823c0-22.71 13.613-42.21 33.032-51.081v-47.371c-9.758 5.685-20.944 9.185-33.032 9.185-36.435 0-66.065-29.629-66.065-66.065s29.629-66.065 66.065-66.065 66.065 29.629 66.065 66.065v100.056c12.968 2.29 24.629 8.984 33.032 18.927v-218.081h-264.258v66.065zM99.097 334.452v99.097h132.129v-34.702c-32.306-6.573-57.823-32.089-64.395-64.395zM330.323 433.548h132.129v-115.613h-132.129zM561.548 202.323c0-18.218-14.815-33.032-33.032-33.032s-33.032 14.815-33.032 33.032 14.815 33.032 33.032 33.032 33.032-14.815 33.032-33.032zM346.839 862.968h132.129v-33.032h-66.065v-33.032h66.065v-33.032h-33.032v-33.032h33.032v-33.032h-66.065v-33.032h66.065v-33.032h-33.032v-33.032h33.032v-66.065h-132.129zM214.71 532.645v198.194h33.032v-198.194zM233.403 763.871h-70.403l35.194 52.798zM148.645 730.839h33.032v-198.194h-33.032zM132.129-71.613l-75.742 75.742h75.742zM990.968-94.968h-825.806v132.129h-132.129v462.452h549.71l-13.911-33.032h-502.766v-396.387h594.581v322.871l22.476 53.379c18.927-8.419 39.379-12.895 60.105-12.895s41.177 4.476 60.105 12.895l46.573-110.621c7.5-17.806 23.403-30.161 41.968-33.444v-67.024h-198.194v-231.226h264.258v231.226h-33.032v71.218c19.419 8.871 33.032 28.371 33.032 51.081v1.823c0 7.548-1.484 14.879-4.411 21.815l-49.815 118.323h87.258zM198.194-61.935h363.355v99.097h-363.355zM396.387-28.903h-33.032v33.032h33.032zM429.419 4.129h33.032v-33.032h-33.032zM330.323-28.903h-33.032v33.032h33.032zM528.516-28.903h-33.032v33.032h33.032zM231.226 4.129h33.032v-33.032h-33.032zM594.581-28.903h363.355v-33.032h-363.355z" />
<glyph unicode="&#xe914;" glyph-name="park" data-tags="park" d="M973.444 57.298c0.677 4.419 1.008 8.669 1.008 12.895 0 54.653-44.444 99.097-99.097 99.097-12.798 0-24.992-2.508-36.218-6.952-11.815 15.903-27.968 27.629-46.363 34.121v183.21c24.242-27.597 59.573-45.218 99.097-45.218 72.855 0 132.129 59.274 132.129 132.129 0 43.669-21.403 83.968-56.766 108.492 4.758 12.823 7.218 26.46 7.218 40.153 0 47.597-29.645 90.048-72.734 107.355 4.419 13.315 6.669 27.137 6.669 41.29 0 72.855-59.274 132.129-132.129 132.129s-132.129-59.274-132.129-132.129c0-14.153 2.25-27.976 6.669-41.29-43.089-17.306-72.734-59.758-72.734-107.355 0-13.694 2.46-27.331 7.218-40.153-35.363-24.524-56.766-64.823-56.766-108.492 0-72.855 59.274-132.129 132.129-132.129 39.524 0 74.855 17.621 99.097 45.218v-177.347c-32.5 0-61.306-15.79-79.379-40.032-11.492 4.508-23.75 7-36.234 7-33.677 0-64.508-17.476-82.581-44.855v77.887h66.065v99.097h-66.065v39.871l-66.065 66.065-66.065-66.065v-39.871h-33.032v39.871l-66.065 66.065-33.032-33.032v141.806h49.548c63.734 0 115.613 51.879 115.613 115.613v16.516h-82.581c-32.339 0-61.573-13.379-82.581-34.863v67.895h49.548c63.734 0 115.613 51.879 115.613 115.613v16.516h-82.581c-11.645 0-23.056-1.815-34.105-5.25l-64.992 81.242-64.992-81.242c-11.048 3.435-22.46 5.25-34.105 5.25h-82.581v-16.516c0-63.734 51.879-115.613 115.613-115.613h49.548v-150.476c-21.008 21.484-50.242 34.863-82.581 34.863h-82.581v-16.516c0-63.734 51.879-115.613 115.613-115.613h49.548v-132.129h-33.032v39.871l-66.065 66.065-66.065-66.065v-39.871h-66.065v-99.097h66.065v-99.097h-66.065v-99.097h66.065v-99.097h-33.032v-33.032h858.839c54.653 0 99.097 44.444 99.097 99.097 0 36.339-19.435 68.839-50.556 86.202zM660.645 367.484c-54.653 0-99.097 44.444-99.097 99.097 0 36.629 20.113 70.145 52.492 87.435l14.581 7.782-7.798 14.581c-6.452 12.056-9.726 25.137-9.726 38.847 0 38.734 27.468 72.685 65.323 80.75l20.927 4.46-9.597 19.105c-7.024 13.992-10.589 28.887-10.589 44.331 0 54.653 44.444 99.097 99.097 99.097s99.097-44.444 99.097-99.097c0-15.444-3.565-30.339-10.589-44.347l-9.597-19.105 20.927-4.46c37.855-8.048 65.323-42 65.323-80.734 0-13.71-3.274-26.79-9.726-38.863l-7.798-14.581 14.581-7.782c32.379-17.274 52.492-50.79 52.492-87.419 0-54.653-44.444-99.097-99.097-99.097-41.556 0-77.145 25.718-91.847 62.048l76.516 51.008 57.476-28.742 14.782 29.548-74.653 37.323-81.274-54.185c-0.016 0.71-0.097 1.387-0.097 2.097v91.153l18.96 15.177 35.427-35.427 23.355 23.355-32.815 32.815 31.46 25.169-20.645 25.798-55.742-44.573v72.403l42.202 28.129-18.323 27.484-23.879-15.919v44.048l-56.895 37.935-18.323-27.484 42.185-28.129v-204.532l-53.742 42.992-31.613 47.419-27.484-18.323 25.516-38.282-39.968-39.968 23.355-23.355 39.556 39.556 64.379-52.29v-25.153c0-54.653-44.444-99.097-99.097-99.097zM379.871 615.226h47.879c-7.677-37.637-41.024-66.065-80.911-66.065h-47.879c7.661 37.637 41.024 66.065 80.911 66.065zM427.75 780.387c-7.516-36.879-39.718-64.726-78.532-65.847 8.855 12.597 14.137 27.863 14.137 44.395 0 6.435-1.073 12.782-2.645 18.976 6.266 1.516 12.653 2.476 19.161 2.476zM241.016 786.815l39.758 49.71 39.774-49.726c6.306-7.863 9.774-17.774 9.774-27.863 0-24.597-20.016-44.613-44.613-44.613h-9.871c-24.597 0-44.613 20.016-44.613 44.613 0 10.089 3.468 20 9.79 27.879zM133.798 780.387h47.879c6.508 0 12.895-0.96 19.177-2.476-1.589-6.194-2.661-12.54-2.661-18.976 0-16.532 5.282-31.798 14.121-44.395-38.798 1.121-71 28.968-78.516 65.847zM214.71 466.581c-39.887 0-73.25 28.427-80.911 66.065h47.879c39.887 0 73.25-28.427 80.911-66.065zM594.581 268.387v-33.032h-33.032v33.032zM495.484 360.645l33.032-33.032v-192.839c-5.387 0.903-10.887 1.484-16.516 1.484-17.887 0-34.831-4.887-49.548-13.411v204.766zM429.419 91.5c-4.476-6.758-8.073-14.089-10.798-21.935-7.718-0.839-15.145-2.645-22.234-5.169v137.927h33.032zM429.419 268.387v-33.032h-33.032v33.032zM363.355 327.613v-282.855c-20.218-18.153-33.032-44.395-33.032-73.661 0-25.403 9.677-48.508 25.435-66.065h-58.468v422.581l33.032 33.032zM264.258 103.226h-33.032v99.097h33.032zM264.258 70.194v-33.032h-33.032v33.032zM264.258 4.129v-99.097h-33.032v99.097zM264.258 268.387v-33.032h-33.032v33.032zM66.065 235.355v33.032h33.032v-33.032zM66.065 37.161v33.032h33.032v-33.032zM132.129 327.613l33.032 33.032 33.032-33.032v-422.581h-66.065zM924.903-94.968h-495.484c-36.435 0-66.065 29.629-66.065 66.065s29.629 66.065 66.065 66.065 66.065-29.629 66.065-66.065h33.032c0 46.363-32.040 85.29-75.129 96.040 11.081 21.573 33.427 36.089 58.613 36.089 36.435 0 66.065-29.629 66.065-66.065h33.032c0 24.992-9.363 47.766-24.677 65.226 11.532 20.589 33.629 33.871 57.71 33.871 7.202 0 14.266-1.306 20.992-3.548-2.903-9.315-4.476-19.226-4.476-29.484h33.032c0 36.435 29.629 66.065 66.065 66.065 20.065 0 38.532-9.081 50.919-24.194-21.024-18.185-34.403-44.992-34.403-74.903h33.032c0 36.435 29.629 66.065 66.065 66.065s66.065-29.629 66.065-66.065c0-5.282-0.895-10.952-2.79-17.79l-4.032-14.435 13.992-5.395c25.75-9.944 42.379-34.073 42.379-61.476 0-36.435-29.629-66.065-66.065-66.065zM0-94.968h33.032v-33.032h-33.032zM908.387 301.419h-82.581v-16.516c0-45.532 37.048-82.581 82.581-82.581h82.581v16.516c0 45.532-37.048 82.581-82.581 82.581zM908.387 235.355c-21.54 0-39.903 13.806-46.726 33.032h46.726c21.54 0 39.903-13.806 46.726-33.032z" />
<glyph unicode="&#xe915;" glyph-name="resort" data-tags="resort" d="M1023.835 268.325h-99.081v432.39c19.174 6.83 33.027 24.996 33.027 46.501v33.027c0 27.31-22.23 49.54-49.54 49.54h-115.594v16.513c0 27.31-22.23 49.54-49.54 49.54h-462.377c-27.31 0-49.54-22.23-49.54-49.54v-16.513h-115.594c-27.31 0-49.54-22.23-49.54-49.54v-33.027c0-21.505 13.853-39.671 33.027-46.501v-432.39h-99.081v-231.189h1023.835zM990.808 169.244h-547.468l-11.014 66.054h558.483zM264.215 697.675v-33.027h-99.081v-132.108h-33.027v165.135zM891.727 466.487h-132.108v33.027h132.108zM825.673 268.325h-66.054v99.081h66.054zM825.673 532.541h-66.054v99.081h66.054zM891.727 532.541h-33.027v132.108h-99.081v33.027h132.108zM726.592 268.325h-33.027v198.162h-165.135v-198.162h-231.189v495.404h429.35zM660.539 268.325h-99.081v165.135h99.081zM250.677 169.244h159.168l5.499-33.027h-170.166zM264.215 532.541h-66.054v99.081h66.054zM132.108 499.514h132.108v-33.027h-132.108zM264.215 268.325h-66.054v99.081h66.054zM398.847 235.298l5.499-33.027h-148.17l5.499 33.027zM239.679 103.19h181.197l5.499-33.027h-192.211zM858.7 268.325v132.108h-99.081v33.027h132.108v-165.135zM924.754 780.243v-33.027c0-9.103-7.402-16.513-16.513-16.513h-148.621v36.067c13.99 4.983 25.004 15.997 29.987 29.987h118.634c9.111 0 16.513-7.418 16.513-16.513zM264.215 846.296c0 9.095 7.402 16.513 16.513 16.513h462.377c9.111 0 16.513-7.418 16.513-16.513v-33.027c0-9.103-7.402-16.513-16.513-16.513h-462.377c-9.111 0-16.513 7.41-16.513 16.513zM99.081 780.243c0 9.095 7.402 16.513 16.513 16.513h118.634c4.983-13.99 15.997-25.004 29.987-29.987v-36.067h-148.621c-9.111 0-16.513 7.41-16.513 16.513zM132.108 433.46h132.108v-33.027h-99.081v-132.108h-33.027zM228.213 235.298l-11.014-66.054h-184.172v66.054zM33.027 136.217h178.673l-11.014-66.054h-167.658zM459.853 70.164l-11.014 66.054h541.969v-66.054zM895.775-94.971c-27.995 0-41.187 6.805-56.459 14.675-16.683 8.587-35.559 18.352-71.585 18.352-36.018 0-54.894-9.765-71.569-18.352-15.264-7.87-28.423-14.675-56.41-14.675-27.995 0-41.171 6.805-56.426 14.675-16.683 8.587-35.559 18.352-71.569 18.352-36.018 0-54.894-9.765-71.577-18.352-15.256-7.87-28.399-14.675-56.386-14.675-27.995 0-41.155 6.805-56.394 14.675-16.667 8.587-35.543 18.352-71.537 18.352-36.002 0-54.894-9.765-71.553-18.352-15.248-7.87-28.423-14.675-56.378-14.675-27.971 0-41.155 6.805-56.394 14.675-16.659 8.587-35.535 18.352-71.537 18.352v-33.027c27.955 0 41.139-6.805 56.378-14.683 16.659-8.587 35.551-18.344 71.553-18.344 35.994 0 54.87 9.756 71.537 18.344 15.239 7.878 28.415 14.683 56.394 14.683 27.955 0 41.13-6.805 56.378-14.683 16.659-8.587 35.567-18.344 71.553-18.344 35.978 0 54.87 9.756 71.553 18.344 15.256 7.878 28.431 14.683 56.41 14.683 27.971 0 41.147-6.805 56.402-14.683 16.683-8.587 35.591-18.344 71.593-18.344 35.994 0 54.886 9.756 71.569 18.344 15.256 7.878 28.431 14.683 56.41 14.683 27.987 0 41.179-6.805 56.459-14.683 16.675-8.587 35.551-18.344 71.585-18.344 36.026 0 54.919 9.756 71.601 18.344 15.272 7.878 28.471 14.683 56.459 14.683v33.027c-36.018 0-54.91-9.748-71.585-18.352-15.272-7.87-28.471-14.675-56.475-14.675zM952.411-14.242c-15.272-7.87-28.463-14.675-56.459-14.675-28.004 0-41.195 6.805-56.475 14.675-16.675 8.603-35.567 18.352-71.585 18.352s-54.894-9.765-71.569-18.352c-15.256-7.87-28.423-14.675-56.394-14.675-27.987 0-41.171 6.805-56.426 14.675-16.675 8.587-35.567 18.352-71.585 18.352s-54.894-9.765-71.569-18.352c-15.256-7.87-28.423-14.675-56.394-14.675-27.955 0-41.139 6.805-56.378 14.675-16.659 8.587-35.551 18.352-71.553 18.352-35.994 0-54.87-9.765-71.537-18.352-15.239-7.87-28.415-14.675-56.394-14.675-27.955 0-41.13 6.805-56.378 14.675-16.659 8.587-35.567 18.352-71.553 18.352v-33.027c27.979 0 41.155-6.805 56.394-14.683 16.667-8.587 35.543-18.344 71.537-18.344 36.002 0 54.894 9.756 71.553 18.344 15.248 7.878 28.423 14.683 56.378 14.683 27.979 0 41.155-6.805 56.394-14.683 16.667-8.587 35.535-18.344 71.537-18.344s54.878 9.756 71.553 18.344c15.256 7.878 28.439 14.683 56.41 14.683 27.987 0 41.171-6.805 56.426-14.683 16.675-8.587 35.567-18.344 71.585-18.344 36.002 0 54.878 9.756 71.553 18.344 15.256 7.878 28.439 14.683 56.41 14.683 27.987 0 41.187-6.805 56.459-14.683 16.683-8.587 35.575-18.344 71.601-18.344 36.035 0 54.91 9.756 71.585 18.344 15.28 7.878 28.455 14.683 56.459 14.683v33.027c-36.026 0-54.902-9.765-71.585-18.352zM495.404 730.702h-165.135v-99.081h165.135zM462.377 664.648h-99.081v33.027h99.081zM693.566 730.702h-165.135v-99.081h165.135zM660.539 664.648h-99.081v33.027h99.081zM495.404 598.594h-165.135v-99.081h165.135zM462.377 532.541h-99.081v33.027h99.081zM495.404 367.406v99.081h-165.135v-99.081zM363.296 433.46h99.081v-33.027h-99.081zM693.566 598.594h-165.135v-99.081h165.135zM660.539 532.541h-99.081v33.027h99.081z" />
<glyph unicode="&#xe916;" glyph-name="road" data-tags="road" d="M0-94.968h33.032v-33.032h-33.032zM990.968-94.968h33.032v-33.032h-33.032zM1024 664.774v231.226h-165.161v-198.194h-33.032v127.524l-99.097 33.032v37.637h-198.194v-99.097h-66.065v26.726l-82.581 41.29-82.581-41.29v-125.823h-33.032v198.194h-165.161v-66.065h-99.097v-165.161h260.476l-44.726-214.71h-215.75v-99.097h66.065v-231.226h-33.032v-33.032h107.008l-37.855-181.677h-36.121v-33.032h891.871v33.032h-36.121l-37.855 181.677h107.008v33.032h-33.032v231.226h66.065v99.097h-215.75l-44.726 214.71zM891.871 862.968h99.097v-165.161h-99.097zM792.774 801.508v-103.702h-66.065v125.734zM561.548 862.968h132.129v-165.161h-99.097v99.097h-33.032zM647.218 664.774l158.274-759.742h-587l158.274 759.742zM561.548 763.871v-66.065h-99.097v66.065zM330.323 803.21l49.548 24.774 49.548-24.774v-105.403h-99.097zM231.226 862.968v-165.161h-99.097v165.161zM33.032 796.903h66.065v-99.097h-66.065zM195.089 350.968l-29.927-143.694v143.694zM33.032 417.032h174.839l16.516-16.516-16.516-16.516h-174.839zM99.097 350.968h33.032v-231.226h-33.032zM173.766 86.71h24.427v33.032h-17.54l50.097 240.411 40.347 40.363-26.444 26.444 49.548 237.815h48.855l-158.274-759.742h-48.871zM924.903 119.742h-33.032v231.226h33.032zM858.839 207.274l-29.927 143.694h29.927zM990.968 417.032v-33.032h-174.839l-16.516 16.516 16.516 16.516zM779.347 426.96l-26.444-26.444 40.363-40.363 50.081-240.411h-17.54v-33.032h24.427l37.855-181.677h-48.855l-158.274 759.742h48.855zM561.548-61.935v198.194h-99.097v-198.194zM495.484 103.226h33.032v-132.129h-33.032zM561.548 367.484h-99.097v-198.194h99.097zM528.516 202.323h-33.032v132.129h33.032zM561.548 598.71h-99.097v-198.194h99.097zM528.516 433.548h-33.032v132.129h33.032z" />
<glyph unicode="&#xe917;" glyph-name="school" data-tags="school" d="M1015.007 333.033l-79.031 197.585h-159.34v65.862h32.931v107.749l-296.377 191.772-296.377-191.772v-107.749h32.931v-65.862h-159.332l-79.031-197.585h40.778v-461.031h922.063v461.031zM913.682 497.687l52.693-131.723h-189.738v131.723zM809.567 3.725h65.862v-32.931h-65.862zM611.982-95.068h-197.585v148.189c0 45.392 36.935 82.327 82.327 82.327h32.931c45.4 0 82.327-36.935 82.327-82.327zM529.655 168.379h-32.931c-63.538 0-115.258-51.704-115.258-115.258v-148.189h-32.931v164.654c0 72.631 59.1 131.723 131.723 131.723h65.862c72.631 0 131.723-59.092 131.723-131.723v-164.654h-32.931v148.189c0 63.554-51.712 115.258-115.258 115.258zM216.813-29.206h-65.862v32.931h65.862zM249.743 234.24h-98.792v32.931h98.792zM266.209 135.448h63.249c-8.86-20.188-13.852-42.45-13.852-65.862v-164.654h-65.862v214.050c0 9.069 7.38 16.465 16.465 16.465zM546.121 234.24h-16.465v65.862h115.258v-99.106c-27.56 20.759-61.705 33.244-98.792 33.244zM644.913 333.033h-115.258v65.862h115.258zM529.655 431.825v65.862h32.931c39.749 0 73.009-28.34 80.671-65.862zM496.724 431.825h-113.594c7.662 37.522 40.906 65.862 80.663 65.862h32.931zM381.467 398.894h115.258v-65.862h-115.258zM381.467 300.102h115.258v-65.862h-16.465c-37.079 0-71.224-12.486-98.792-33.244zM696.93 135.448h63.241c9.093 0 16.465-7.397 16.465-16.465v-214.050h-65.862v164.654c0 23.412-4.985 45.674-13.844 65.862zM776.636 267.171h98.792v-32.931h-98.792zM513.19 856.782l249.602-161.511h-499.196zM249.743 662.341h526.893v-32.931h-526.893zM743.706 596.479v-428.101h-65.862v246.981c0 63.554-51.712 115.258-115.258 115.258h-98.792c-63.538 0-115.258-51.704-115.258-115.258v-246.981h-65.862v428.101zM112.706 497.687h137.038v-131.723h-189.73zM85.089 333.033h164.654v-32.931h-131.723v-98.792h131.723v-35.962c-19.11-6.818-32.931-24.931-32.931-46.365v-16.465h-65.862v32.931h32.931v32.931h-65.862v-98.792h98.792v-32.931h-98.792v-98.792h98.792v-32.931h-131.723zM941.29-95.068h-131.723v32.931h98.792v98.792h-98.792v32.931h98.792v98.792h-65.862v-32.931h32.931v-32.931h-65.862v16.465c0 21.434-13.812 39.548-32.931 46.365v35.962h131.723v98.792h-131.723v32.931h164.654z" />
<glyph unicode="&#xe918;" glyph-name="draft" data-tags="draft" d="M1002.063-0.216l-37.265 37.265h58.509v726.218h-858.257v132.040h-82.525c-45.501 0-82.525-37.023-82.525-82.525v-693.208c0-45.501 37.023-82.525 82.525-82.525h670.546l143.129-143.129c14.128-14.128 32.929-21.921 52.932-21.921 41.278 0 74.869 33.574 74.869 74.853 0 19.986-7.793 38.78-21.937 52.932zM568.873 326.611l60.475-17.182-42.947-42.947zM660.891 294.295l268.665-268.681-59.186-59.186-268.649 268.681zM33.010 812.782c0 27.296 22.219 49.515 49.515 49.515h49.515v-660.198h-49.515c-18.568 0-35.718-6.157-49.515-16.537zM82.525 70.059c-27.296 0-49.515 22.219-49.515 49.515s22.219 49.515 49.515 49.515h82.525v561.168h825.247v-660.198h-58.509l-262.266 262.282-149.068 42.334 43.237-148.246 156.37-156.37zM949.131-94.99c-11.186 0-21.687 4.36-29.593 12.25l-25.829 25.829 59.186 59.186 25.829-25.829c7.906-7.906 12.266-18.423 12.266-29.593 0-23.057-18.786-41.843-41.859-41.843zM264.079 631.228v-326.086l326.086 326.086zM297.089 598.218h213.396l-213.396-213.396zM561.168 400.158h264.079v67.341c5.416-0.774 10.896-1.322 16.505-1.322 63.691 0 115.535 51.844 115.535 115.535s-51.844 115.535-115.535 115.535c-31.39 0-59.847-12.629-80.695-33.010h-44.51l33.010 33.010h-551.497v-551.497l363.109 363.109zM841.752 664.238c45.501 0 82.525-37.023 82.525-82.525s-37.023-82.525-82.525-82.525-82.525 37.023-82.525 82.525c0 45.501 37.023 82.525 82.525 82.525zM737.525 631.228c-7.165-15.038-11.307-31.785-11.307-49.515 0-45.969 27.054-85.627 66.020-104.228v-44.317h-198.059v108.701l89.359 89.359zM231.069 664.238h438.8l-438.8-438.8zM247.574 136.079h33.010v-33.010h-33.010zM313.594 136.079h231.069v-33.010h-231.069z" />
<glyph unicode="&#xe919;" glyph-name="smarthome" data-tags="smarthome" d="M247.742 703.323h66.065c18.218 0 33.032 14.815 33.032 33.032v33.032c0 18.218-14.815 33.032-33.032 33.032h-66.065c-18.218 0-33.032-14.815-33.032-33.032v-33.032c0-18.218 14.815-33.032 33.032-33.032zM247.742 769.387h66.065l0.032-33.032h-66.097zM977.742 333.363l-52.839 39.621v313.823c0 45.532-37.048 82.581-82.581 82.581h-264.258c-23.008 0-43.798-9.5-58.798-24.742l-238.492 143.097-256.25-153.75 17-28.323 57.573 34.548v-268.121h165.161v-99.097h231.226v-273.427l-154.984-139.476h-340.5v-33.032h353.177l148.718 133.847c10.355-25.073 32.516-44.065 59.653-49.597v-14.702c0-16.363 4.79-32.202 13.871-45.798l10.839-16.25c5.452-8.177 8.323-17.677 8.323-27.5v-29.548h363.355v47.831c0 18.677 6.427 37 18.089 51.581l22.653 28.29c16.323 20.411 25.323 46.065 25.323 72.21v163.444c0 36.185-17.29 70.774-46.258 92.492zM819.282 296.944l6.524-4.347v-51.726h-231.226v297.29h231.226v-138.637c-0.161-0.081-0.331-0.177-0.492-0.266-4.976 59.194-54.669 105.871-115.121 105.871-63.734 0-115.613-51.879-115.613-115.613h33.032c0 45.532 37.048 82.581 82.581 82.581s82.581-37.048 82.581-82.581h18.597c-11.395-10.855-18.597-26.081-18.597-43.024 0-19.952 9.911-38.484 26.508-49.548zM561.548 571.194v-363.355h297.29v62.726l33.032-22.016v-73.742h-363.355v462.452h75.742l33.032-33.032h145.806l33.032 33.032h75.742v-239.847c-9.25 5.581-20 8.621-30.855 8.621h-2.177v165.161zM578.065 736.355h264.258c27.315 0 49.548-22.234 49.548-49.548v-16.516h-89.419l-33.032-33.032h-118.452l-33.032 33.032h-89.419v16.516c0 27.315 22.234 49.548 49.548 49.548zM132.129 760.040l148.645 89.185 148.645-89.185v-254.911h-33.032v165.161h-231.226v-165.161h-33.032zM363.355 505.129h-165.161v132.129h165.161zM297.29 406.032v66.065h165.161v268.121l38.895-23.339c-3.685-9.347-5.863-19.435-5.863-30.073v-280.774zM578.065 42.677c-27.315 0-49.548 22.234-49.548 49.548v49.548h363.355v-49.548c0-27.315-22.234-49.548-49.548-49.548zM990.968 77.427c0-18.677-6.427-36.992-18.089-51.581l-22.653-28.29c-16.323-20.411-25.323-46.065-25.323-72.21v-14.798h-297.371c-0.629 15.129-5.355 29.694-13.79 42.315l-10.839 16.25c-5.452 8.177-8.323 17.677-8.323 27.5v13.032h247.742c45.532 0 82.581 37.048 82.581 82.581v174l-87.29 58.185c-7.379 4.935-11.806 13.177-11.806 22.081 0 14.613 11.895 26.508 26.508 26.508h8.685c5.718 0 11.347-1.879 15.911-5.298l81.024-60.766c20.677-15.508 33.032-40.218 33.032-66.065zM693.677 108.742h33.032v-33.032h-33.032zM792.774 108.742h33.032v-33.032h-33.032zM594.581 108.742h33.032v-33.032h-33.032zM660.645 703.323h99.097v-33.032h-99.097zM710.194 439.065c-27.315 0-49.548-22.234-49.548-49.548s22.234-49.548 49.548-49.548 49.548 22.234 49.548 49.548-22.234 49.548-49.548 49.548zM710.194 373c-9.113 0-16.516 7.403-16.516 16.516 0 9.121 7.403 16.516 16.516 16.516s16.516-7.395 16.516-16.516c0-9.113-7.403-16.516-16.516-16.516zM297.29 26.161h33.032v-33.032h-33.032zM33.032 26.161h231.226v-33.032h-231.226zM29.137 164.629l-12.476-25.315 63.427-63.46 25.347 12.476c1.919-0.863 3.855-1.669 5.782-2.411l9.089-26.726h89.71l9.105 26.71c1.911 0.758 3.847 1.565 5.782 2.411l25.347-12.476 63.427 63.46-12.476 25.315c0.863 1.919 1.669 3.855 2.411 5.782l26.71 9.105v89.71l-26.71 9.105c-0.758 1.911-1.565 3.847-2.411 5.782l12.476 25.347-63.427 63.427-25.347-12.476c-1.919 0.863-3.855 1.669-5.782 2.411l-9.105 26.71h-89.71l-9.105-26.71c-1.911-0.758-3.847-1.565-5.782-2.411l-25.347 12.476-63.427-63.427 12.476-25.347c-0.863-1.919-1.669-3.855-2.411-5.782l-26.71-9.105v-89.71l26.71-9.105c0.758-1.911 1.565-3.847 2.427-5.766zM33.032 245.565l19.653 6.685 2.565 7.863c1.782 5.516 4.129 11.097 6.919 16.597l3.766 7.371-9.218 18.71 29.992 29.992 18.71-9.218 7.371 3.766c5.5 2.79 11.081 5.137 16.597 6.919l7.863 2.565 6.702 19.669h42.419l6.685-19.653 7.863-2.565c5.516-1.782 11.097-4.129 16.597-6.919l7.371-3.766 18.71 9.218 29.992-29.992-9.218-18.71 3.766-7.371c2.79-5.5 5.137-11.081 6.919-16.597l2.565-7.863 19.669-6.702v-42.419l-19.653-6.685-2.565-7.863c-1.782-5.516-4.129-11.097-6.919-16.597l-3.766-7.371 9.218-18.71-29.992-29.992-18.71 9.218-7.371-3.766c-5.5-2.79-11.081-5.137-16.597-6.919l-7.863-2.565-6.702-19.669h-42.419l-6.685 19.653-7.863 2.565c-5.516 1.782-11.097 4.129-16.597 6.919l-7.371 3.766-18.71-9.218-29.992 29.992 9.218 18.71-3.766 7.387c-2.79 5.5-5.137 11.081-6.919 16.597l-2.581 7.863-19.653 6.685zM165.161 141.774c45.532 0 82.581 37.048 82.581 82.581s-37.048 82.581-82.581 82.581-82.581-37.048-82.581-82.581 37.048-82.581 82.581-82.581zM165.161 273.903c27.315 0 49.548-22.234 49.548-49.548s-22.234-49.548-49.548-49.548-49.548 22.234-49.548 49.548 22.234 49.548 49.548 49.548z" />
<glyph unicode="&#xe91a;" glyph-name="christ-the-redeemer" data-tags="christ-the-redeemer" d="M842.323-78.452c0 21.5-13.855 39.669-33.032 46.508v19.556c0 27.315-22.234 49.548-49.548 49.548h-34.605l-14.944 149.484v263.419h11.161c31.040 0 59.806 12.339 80.919 33.032h106.113c18.218 0 33.032 14.815 33.032 33.032v33.032c0 18.218-14.815 33.032-33.032 33.032h-80.565l-169.685 42.169c1.613 7.71 2.508 15.702 2.508 23.895v99.097c0 81.952-66.677 148.645-148.645 148.645s-148.645-66.694-148.645-148.645v-99.097c0-8.194 0.895-16.185 2.508-23.895l-169.685-42.169h-80.565c-18.218 0-33.032-14.815-33.032-33.032v-33.032c0-18.218 14.815-33.032 33.032-33.032h106.113c21.113-20.694 49.895-33.032 80.919-33.032h26.403l-30.573-412.903h-34.218c-27.315 0-49.548-22.234-49.548-49.548v-19.556c-19.177-6.839-33.032-25.008-33.032-46.508v-16.516h-115.613v-33.032h891.871v33.032h-115.613zM429.419 199.879v-162.718h-33.032v175.419zM462.452 187.161l33.032-12.702v-137.298h-33.032zM528.516 161.758l33.032-12.702v-111.895h-33.032zM594.581 136.339l33.032-12.702v-86.476h-33.032zM660.645 110.935l24.871-9.556 6.427-64.218h-31.298zM908.387 516.129h-82.879c2 4.226 4 8.46 5.5 12.984l6.71 20.048h70.669zM799.694 539.548c-11.266-33.758-42.742-56.452-78.339-56.452h-11.161v94.29l94.29-23.419zM677.161 585.597v-383.274h-33.032v92.79l-33.032 16.516v241.895c14.702 10.274 26.935 23.815 35.556 39.653zM478.968 638.742c10.137-4.46 21.274-7 33.032-7s22.895 2.54 33.032 7v-18.016l-33.032-44.048-33.032 44.048zM561.548 714.323c0-27.315-22.234-49.548-49.548-49.548s-49.548 22.234-49.548 49.548v33.032c0 27.315 22.234 49.548 49.548 49.548s49.548-22.234 49.548-49.548zM454.194 598.71l24.774-33.032c-26.871 0-50.556 13.097-65.637 33.032zM569.806 598.71h40.879c-15.097-19.935-38.782-33.032-65.637-33.032zM396.387 747.355c0 63.75 51.879 115.613 115.613 115.613s115.613-51.863 115.613-115.613v-99.097c0-5.911-0.677-11.661-1.863-17.226-3.839 0.395-7.685 0.71-11.532 0.71h-36.153v33.048h-0.411c10.468 13.839 16.927 30.887 16.927 49.532v33.032c0 45.532-37.048 82.581-82.581 82.581s-82.581-37.048-82.581-82.581v-33.032c0-18.645 6.46-35.694 16.927-49.532h-0.411v-33.048h-36.185c-3.831 0-7.661-0.315-11.5-0.694-1.185 5.548-1.863 11.298-1.863 17.21zM478.968 532.645h66.065c11.476 0 22.565 1.734 33.032 4.871v-87.008c-32.274 0.992-66.944 4.694-103.605 11.379-63.589 11.613-113.024 61.742-124.847 124.403l27.734 6.887c19.621-36.040 57.806-60.532 101.621-60.532zM115.613 549.161h70.685l6.694-20.032c1.5-4.524 3.5-8.774 5.5-13h-82.879zM302.645 483.097c-35.597 0-67.089 22.694-78.339 56.468l-4.79 14.403 98.056 24.363c14.944-75.065 74.484-134.968 150.96-148.944 38.661-7.056 75.331-10.919 109.548-11.911v-126.25l33.032-16.516v-105.419h67.637l3.105-31.113-333.266 128.177 16.040 216.742zM346.016 231.952l17.339-6.669v-188.121h-31.758zM264.258 4.129h495.484c9.113 0 16.516-7.419 16.516-16.516v-16.516h-528.516v16.516c0 9.097 7.403 16.516 16.516 16.516zM214.71-78.452c0 9.097 7.403 16.516 16.516 16.516h561.548c9.113 0 16.516-7.419 16.516-16.516v-16.516h-594.581zM0-94.968h33.032v-33.032h-33.032zM990.968-94.968h33.032v-33.032h-33.032z" />
<glyph unicode="&#xe91b;" glyph-name="structure" data-tags="structure" d="M990.968 334.452h-66.065v462.452c18.218 0 33.032 14.815 33.032 33.032v33.032c0 18.218-14.815 33.032-33.032 33.032h-825.806c-18.218 0-33.032-14.815-33.032-33.032v-33.032c0-18.218 14.815-33.032 33.032-33.032v-330.323h-66.065c-18.218 0-33.032-14.815-33.032-33.032v-33.032c0-18.218 14.815-33.032 33.032-33.032v-495.484h957.935v363.355c18.218 0 33.032 14.815 33.032 33.032v33.032c0 18.218-14.815 33.032-33.032 33.032zM792.774 334.452v33.032c18.218 0 33.032 14.815 33.032 33.032v33.032c0 18.218-14.815 33.032-33.032 33.032h-108.774l92.258 92.258 115.613-115.613v-108.774zM231.226 164.202l-149.073 203.282h298.161zM396.387 333.54v-394.565l-144.677 197.282zM210.742 136.258l-144.677-197.282v394.565zM231.226 108.315l149.073-203.282h-298.145zM528.516-94.968h-83.008l83.008 113.202zM528.516 235.355v-161.25l-99.097-135.129v428.508h330.323v-33.032h-231.226c-18.218 0-33.032-14.815-33.032-33.032v-33.032c0-18.218 14.815-33.032 33.032-33.032zM320.645 466.581l-49.548 49.548 92.258 92.258v-141.806zM273.935 466.581h-52.387l26.194 26.194zM891.871 489.935l-92.258 92.258 92.258 92.258zM776.258 605.548l-92.258 92.258h184.516zM660.645 674.452l92.258-92.258-92.258-92.258zM627.613 589.032l-92.258 92.258 92.258 92.258zM604.258 565.677h-184.516l92.258 92.258zM512 704.645l-92.258 92.258h184.516zM488.645 681.29l-92.258-92.258v184.516zM247.742 539.484l-92.258 92.258h184.516zM396.387 532.645h231.226v-66.065h-231.226zM891.871 730.839h-231.226v66.065h231.226zM99.097 862.968h825.806l0.016-33.032h-825.823zM363.355 796.903v-132.129h-231.226v132.129zM132.129 608.387l92.258-92.258-49.548-49.548h-42.71zM33.032 433.548h759.742l0.016-33.032h-759.758zM825.806-94.968h-132.129v165.161h132.129zM957.935-94.968h-99.097v198.194h-198.194v-198.194h-99.097v330.323h396.387zM528.516 268.387v33.032h462.452l0.016-33.032z" />
<glyph unicode="&#xe91c;" glyph-name="temple" data-tags="temple" d="M1024 532.645v44.21l-37.669 15.081c-33.056 13.234-60.968 35.879-80.718 65.492l-4.903 7.347h-207.032c0 18.218-14.815 33.032-33.032 33.032h-7.032l-115.613 198.194h-52l-115.613-198.194h-7.032c-18.218 0-33.032-14.815-33.032-33.032h-207.032l-4.903-7.347c-19.75-29.613-47.661-52.258-80.718-65.492l-37.669-15.081v-44.21h66.065v-231.226h-66.065v-429.419h1024v429.419h-66.065v231.226zM693.677 631.742h189.589c20.879-28.605 48.444-51.218 80.548-66.065h-303.169v33.032c18.218 0 33.032 14.815 33.032 33.032zM825.806 301.419v165.161h-132.129v-165.161h-33.032v231.226h198.194v-231.226zM792.774 301.419h-66.065v132.129h66.065zM790.774 136.258h-29.032c-10.21 0-18.516 8.306-18.516 18.516 0 4.871 1.984 9.645 5.419 13.097l27.613 27.613 27.613-27.613c3.435-3.452 5.419-8.226 5.419-13.097 0-10.21-8.306-18.516-18.516-18.516zM761.742 103.226h29.032c0.677 0 1.323 0.185 2 0.202v-198.395h-33.032v198.395c0.677-0.016 1.323-0.202 2-0.202zM262.258 136.258h-29.032c-10.21 0-18.516 8.306-18.516 18.516 0 4.871 1.984 9.645 5.419 13.097l27.613 27.613 27.613-27.613c3.435-3.452 5.419-8.226 5.419-13.097 0-10.21-8.306-18.516-18.516-18.516zM231.226 103.427c0.677-0.016 1.323-0.202 2-0.202h29.032c0.677 0 1.323 0.185 2 0.202v-198.395h-33.032zM297.29 301.419h-66.065v132.129h66.065zM198.194 466.581v-165.161h-33.032v231.226h198.194v-231.226h-33.032v165.161zM627.613 598.71v-297.29h-33.032v122.815c0 22.234-12.355 42.234-32.226 52.161-3.927 1.96-7.298 4.935-9.726 8.605l-40.629 60.911-40.629-60.935c-2.427-3.645-5.798-6.605-9.71-8.581-19.887-9.944-32.242-29.952-32.242-52.161v-122.815h-33.032v297.29zM561.548 301.419h-99.097v122.815c0 9.645 5.355 18.298 13.992 22.613 9.065 4.54 16.831 11.395 22.427 19.815l13.129 19.685 13.129-19.669c5.597-8.435 13.363-15.29 22.444-19.831 8.621-4.315 13.976-12.968 13.976-22.613zM310.185-61.935h403.629l8.258-33.032h-420.145zM318.444-28.903l8.258 33.032h370.597l8.258-33.032zM334.96 37.161l8.258 33.032h337.565l8.258-33.032zM351.476 103.226l8.258 33.032h304.532l8.258-33.032zM367.992 169.29l8.258 33.032h271.5l8.258-33.032zM639.492 235.355h-254.984l8.258 33.032h238.468zM504.968 862.968h14.065l96.339-165.161h-206.742zM363.355 664.774h297.29v-33.032h-297.29l-0.016 33.032zM140.734 631.742h189.589c0-18.218 14.815-33.032 33.032-33.032v-33.032h-303.169c32.105 14.847 59.669 37.46 80.548 66.065zM99.097 532.645h33.032v-231.226h-33.032zM358.718 268.387l-61.427-245.71v94.508c10.089 9.411 16.516 22.726 16.516 37.589 0 13.573-5.5 26.855-15.097 36.452l-50.968 50.968-50.968-50.968c-9.597-9.597-15.097-22.879-15.097-36.452 0-14.863 6.427-28.177 16.516-37.589v-113.056h-20.097c2.226 5.766 3.581 11.976 3.581 18.516 0 13.573-5.5 26.855-15.097 36.452l-50.968 50.968-50.968-50.968c-9.597-9.597-15.097-22.879-15.097-36.452 0-6.54 1.355-12.75 3.581-18.516h-20.097v264.258zM82.581 22.645c0 4.871 1.984 9.645 5.419 13.097l27.613 27.613 27.613-27.613c3.435-3.452 5.419-8.226 5.419-13.097 0-10.21-8.306-18.516-18.516-18.516h-29.032c-10.21 0-18.516 8.306-18.516 18.516zM33.032-28.903h165.161v-66.065h-165.161zM825.806-94.968v66.065h165.161v-66.065zM875.355 22.645c0 4.871 1.984 9.645 5.419 13.097l27.613 27.613 27.613-27.613c3.435-3.452 5.419-8.226 5.419-13.097 0-10.21-8.306-18.516-18.516-18.516h-29.032c-10.21 0-18.516 8.306-18.516 18.516zM990.968 4.129h-20.097c2.226 5.766 3.581 11.976 3.581 18.516 0 13.573-5.5 26.855-15.097 36.452l-50.968 50.968-50.968-50.968c-9.597-9.597-15.097-22.879-15.097-36.452 0-6.54 1.355-12.75 3.581-18.516h-20.097v113.056c10.089 9.411 16.516 22.726 16.516 37.589 0 13.573-5.5 26.855-15.097 36.452l-50.968 50.968-50.968-50.968c-9.597-9.597-15.097-22.879-15.097-36.452 0-14.863 6.427-28.177 16.516-37.589v-94.508l-61.427 245.71h325.685zM924.903 301.419h-33.032v231.226h33.032z" />
<glyph unicode="&#xe91d;" glyph-name="stationery" data-tags="stationery" d="M99.097 481.927v-510.831h510.831zM132.129 402.185l398.056-398.056h-398.056zM825.806 37.161h99.097v-33.032h-99.097zM825.806-28.903h99.097v-33.032h-99.097zM1007.484 648.258h16.516v115.613c0 27.315-22.234 49.548-49.548 49.548-5.815 0-11.331-1.185-16.516-3.040v3.040c0 45.532-37.048 82.581-82.581 82.581s-82.581-37.048-82.581-82.581v-548.073c-19.177-6.839-33.032-25.008-33.032-46.508v-49.548c-18.218 0-33.032-14.815-33.032-33.032v-33.032c0-18.218 14.815-33.032 33.032-33.032v-108.774l-66.065 66.065v868.516h-198.194v-670.323l-33.032 33.032v459.508l-82.581 165.161-82.581-165.161v-294.347l-297.29 297.29v-849.161h990.968v198.194c18.218 0 33.032 14.815 33.032 33.032v33.032c0 18.218-14.815 33.032-33.032 33.032v49.548c0 21.5-13.855 39.669-33.032 46.508v498.524c0 9.097 7.419 16.516 16.516 16.516s16.516-7.419 16.516-16.516v-85.403c-19.226-6.823-33.032-25.185-33.032-46.726s13.806-39.903 33.032-46.726v-85.403h33.032v115.613h-16.516c-9.097 0-16.516 7.419-16.516 16.516s7.419 16.516 16.516 16.516zM825.806 268.387v429.419h99.097v-429.419zM528.516 862.968h132.129v-33.032h-66.065v-33.032h66.065v-33.032h-33.032v-33.032h33.032v-33.032h-66.065v-33.032h66.065v-33.032h-33.032v-33.032h33.032v-33.032h-66.065v-33.032h66.065v-33.032h-33.032v-33.032h33.032v-33.032h-66.065v-33.032h66.065v-33.032h-33.032v-33.032h33.032v-33.032h-66.065v-33.032h66.065v-33.032h-33.032v-33.032h33.032v-33.032h-66.065v-33.032h66.065v-75.742l-132.129 132.129zM396.387 324.774v373.032h33.032v-406.065zM419.21 730.839h-78.677l39.339 78.685zM330.323 697.806h33.032v-340l-33.032 33.032zM33.032-94.968v66.065h33.032v33.032h-33.032v33.032h33.032v33.032h-33.032v33.032h33.032v33.032h-33.032v33.032h33.032v33.032h-33.032v33.032h33.032v33.032h-33.032v33.032h33.032v33.032h-33.032v33.032h33.032v33.032h-33.032v33.032h33.032v33.032h-33.032v174.839l726.71-726.71v-9.677zM957.935-94.968h-165.161v165.161h165.161zM990.984 103.226h-231.242v33.032h231.226zM792.774 169.29v49.548c0 9.097 7.419 16.516 16.516 16.516h132.129c9.097 0 16.516-7.419 16.516-16.516v-49.548zM924.903 730.839h-99.097v82.581c0 27.315 22.234 49.548 49.548 49.548s49.548-22.234 49.548-49.548z" />
<glyph unicode="&#xe91e;" glyph-name="back" data-tags="back" d="M311.568 384.027l462.455 462.455c11.374 11.374 11.374 29.614 0 40.988s-29.614 11.374-40.988 0l-483.056-483.056c-11.374-11.374-11.374-29.614 0-40.988l483.056-482.842c5.58-5.58 13.090-8.584 20.387-8.584s14.807 2.79 20.387 8.584c11.374 11.374 11.374 29.614 0 40.988l-462.24 462.455z" />
<glyph unicode="&#xe91f;" glyph-name="down-arrow" data-tags="down-arrow" d="M962.878 621.346c-12.701 12.701-33.34 12.701-46.040 0l-404.837-405.631-405.631 405.631c-12.701 12.701-33.34 12.701-46.040 0s-12.701-33.34 0-46.040l427.857-427.857c6.35-6.35 14.288-9.526 23.020-9.526 7.938 0 16.67 3.175 23.020 9.526l427.857 427.857c13.495 12.701 13.495 33.34 0.794 46.040z" />
<glyph unicode="&#xe920;" glyph-name="menu" data-tags="menu" d="M38.642 635.17h946.717c21.33 0 38.642 17.311 38.642 38.642s-17.311 38.642-38.642 38.642h-946.717c-21.33 0-38.642-17.311-38.642-38.642s17.311-38.642 38.642-38.642zM38.642 345.358h946.717c21.33 0 38.642 17.311 38.642 38.642s-17.311 38.642-38.642 38.642h-946.717c-21.33 0-38.642-17.311-38.642-38.642s17.311-38.642 38.642-38.642zM38.642 55.547h946.717c21.33 0 38.642 17.311 38.642 38.642s-17.311 38.642-38.642 38.642h-946.717c-21.33 0-38.642-17.311-38.642-38.642s17.311-38.642 38.642-38.642z" />
<glyph unicode="&#xe921;" glyph-name="right-arrow" data-tags="right-arrow" d="M320.695-66.878c-6.35-6.35-14.288-9.526-23.020-9.526s-16.67 3.175-23.020 9.526c-12.701 12.701-12.701 33.34 0 46.040l404.837 404.837-404.837 404.837c-12.701 12.701-12.701 33.34 0 46.040s33.34 12.701 46.040 0l427.857-427.857c12.701-12.701 12.701-33.34 0-46.040l-427.857-427.857z" />
<glyph unicode="&#xe922;" glyph-name="cancel" data-tags="cancel" d="M463.056 387.424l-453.248-453.248c-12.592-12.592-12.592-32.992 0-45.584 6.288-6.304 14.544-9.44 22.784-9.44 8.256 0 16.496 3.136 22.784 9.44l456.656 456.656 456.656-456.656c6.304-6.304 14.544-9.44 22.784-9.44s16.496 3.136 22.784 9.44c12.592 12.592 12.592 32.992 0 45.584l-453.232 453.248 453.536 453.568c12.592 12.592 12.592 32.992 0 45.584-12.592 12.576-32.992 12.576-45.568 0l-456.944-456.976-456.992 456.96c-12.592 12.576-32.976 12.576-45.568 0-12.592-12.592-12.592-32.992 0-45.584l453.568-453.552z" />
<glyph unicode="&#xe923;" glyph-name="cross" data-tags="cross" d="M1024 835.758l-59.364 59.233-452.636-451.773-452.638 451.773-59.362-59.233 452.638-451.776-452.638-451.741 59.362-59.231 452.638 451.741 452.636-451.741 59.364 59.231-452.67 451.741z" />
</font></defs></svg>